1.021659e+01 6.662774e-21
1.023975e+01 6.502138e-21
1.026296e+01 6.341156e-21
1.028622e+01 6.179826e-21
1.030954e+01 6.018081e-21
1.033290e+01 5.856058e-21
1.035633e+01 5.693550e-21
1.037980e+01 5.530764e-21
1.040333e+01 5.383363e-21
1.042691e+01 5.331703e-21
1.045054e+01 5.279934e-21
1.047423e+01 5.228033e-21
1.049797e+01 5.176023e-21
1.052177e+01 5.123881e-21
1.054561e+01 5.071652e-21
1.056952e+01 5.019269e-21
1.059347e+01 4.966799e-21
1.061749e+01 4.887672e-21
1.064155e+01 4.798502e-21
1.066567e+01 4.709110e-21
1.068985e+01 4.619495e-21
1.071408e+01 4.529695e-21
1.073836e+01 4.439709e-21
1.076270e+01 4.349502e-21
1.078710e+01 4.259071e-21
1.081155e+01 4.185786e-21
1.083605e+01 4.131747e-21
1.086062e+01 4.077553e-21
1.088523e+01 4.023271e-21
1.090991e+01 3.968834e-21
1.093464e+01 3.914288e-21
1.095942e+01 3.859630e-21
1.098426e+01 3.804841e-21
1.100916e+01 3.726649e-21
1.103411e+01 3.608234e-21
1.105912e+01 3.489534e-21
1.108419e+01 3.370550e-21
1.110932e+01 3.251280e-21
1.113449e+01 3.131821e-21
1.115973e+01 3.012030e-21
1.118503e+01 2.891954e-21
1.121038e+01 2.819726e-21
1.123579e+01 2.816841e-21
1.126126e+01 2.813950e-21
1.128678e+01 2.811052e-21
1.131237e+01 2.808147e-21
1.133801e+01 2.805236e-21
1.136371e+01 2.802318e-21
1.138946e+01 2.799394e-21
1.141528e+01 2.778916e-21
1.144116e+01 2.746259e-21
1.146709e+01 2.713539e-21
1.149308e+01 2.680744e-21
1.151913e+01 2.647872e-21
1.154524e+01 2.614925e-21
1.157141e+01 2.581902e-21
1.159764e+01 2.548803e-21
1.162392e+01 2.542992e-21
1.165027e+01 2.539871e-21
1.167668e+01 2.536743e-21
1.170315e+01 2.533608e-21
1.172967e+01 2.530466e-21
1.175626e+01 2.527317e-21
1.178291e+01 2.524160e-21
1.180962e+01 2.491754e-21
1.183638e+01 2.407242e-21
1.186321e+01 2.322508e-21
1.189010e+01 2.237585e-21
1.191705e+01 2.152473e-21
1.194406e+01 2.067171e-21
1.197114e+01 1.981648e-21
1.199827e+01 1.895967e-21
1.202547e+01 1.897145e-21
1.205273e+01 1.904253e-21
1.208004e+01 1.911374e-21
1.210742e+01 1.918514e-21
1.213487e+01 1.925672e-21
1.216237e+01 1.932843e-21
1.218994e+01 1.940032e-21
1.221757e+01 1.945804e-21
1.224526e+01 1.950766e-21
1.227302e+01 1.955740e-21
1.230084e+01 1.960725e-21
1.232872e+01 1.965721e-21
1.235666e+01 1.970728e-21
1.238467e+01 1.975747e-21
1.241274e+01 1.947993e-21
1.244088e+01 1.880624e-21
1.246908e+01 1.813111e-21
1.249734e+01 1.745455e-21
1.252567e+01 1.677631e-21
1.255406e+01 1.609663e-21
1.258252e+01 1.541527e-21
1.261104e+01 1.503029e-21
1.263962e+01 1.511703e-21
1.266827e+01 1.520397e-21
1.269698e+01 1.529110e-21
1.272576e+01 1.537844e-21
1.275461e+01 1.546600e-21
1.278352e+01 1.555373e-21
1.281250e+01 1.554658e-21
1.284154e+01 1.541376e-21
1.287064e+01 1.528067e-21
1.289982e+01 1.514721e-21
1.292906e+01 1.501347e-21
1.295836e+01 1.487947e-21
1.298773e+01 1.474514e-21
1.301717e+01 1.456214e-21
1.304668e+01 1.434406e-21
1.307625e+01 1.412555e-21
1.310589e+01 1.390651e-21
1.313560e+01 1.368696e-21
1.316537e+01 1.346696e-21
1.319521e+01 1.324645e-21
1.322512e+01 1.374373e-21
1.325510e+01 1.437948e-21
1.328514e+01 1.501650e-21
1.331525e+01 1.565500e-21
1.334543e+01 1.629498e-21
1.337568e+01 1.693645e-21
1.340600e+01 1.821870e-21
1.343639e+01 2.210114e-21
1.346684e+01 2.599126e-21
1.349737e+01 2.989159e-21
1.352796e+01 3.379958e-21
1.355862e+01 3.771652e-21
1.358936e+01 4.164368e-21
1.362016e+01 4.170518e-21
1.365103e+01 3.971792e-21
1.368197e+01 3.772615e-21
1.371298e+01 3.572987e-21
1.374407e+01 3.372844e-21
1.377522e+01 3.172315e-21
1.380644e+01 2.986411e-21
1.383774e+01 2.858185e-21
1.386910e+01 2.729714e-21
1.390054e+01 2.600915e-21
1.393205e+01 2.471829e-21
1.396363e+01 2.342457e-21
1.399528e+01 2.212797e-21
1.402700e+01 2.061451e-21
1.405879e+01 1.906022e-21
1.409066e+01 1.750201e-21
1.412260e+01 1.594038e-21
1.415461e+01 1.437533e-21
1.418669e+01 1.280686e-21
1.421885e+01 1.174327e-21
1.425108e+01 1.103740e-21
1.428338e+01 1.033000e-21
1.431576e+01 9.620851e-22
1.434820e+01 8.910385e-22
1.438073e+01 8.197948e-22
1.441332e+01 7.695890e-22
1.444599e+01 7.499605e-22
1.447874e+01 7.302839e-22
1.451155e+01 7.105713e-22
1.454445e+01 6.908046e-22
1.457741e+01 6.710019e-22
1.461046e+01 6.518468e-22
1.464357e+01 6.341749e-22
1.467676e+01 6.164604e-22
1.471003e+01 5.987032e-22
1.474337e+01 5.809086e-22
1.477679e+01 5.630713e-22
1.481029e+01 5.499076e-22
1.484385e+01 5.473775e-22
1.487750e+01 5.448406e-22
1.491122e+01 5.422984e-22
1.494502e+01 5.397502e-22
1.497890e+01 5.371960e-22
1.501285e+01 5.312307e-22
1.504688e+01 5.196459e-22
1.508098e+01 5.080373e-22
1.511517e+01 4.963981e-22
1.514943e+01 4.847350e-22
1.518376e+01 4.730481e-22
1.521818e+01 4.617129e-22
1.525268e+01 4.506937e-22
1.528725e+01 4.396521e-22
1.532190e+01 4.285849e-22
1.535663e+01 4.174922e-22
1.539144e+01 4.063739e-22
1.542632e+01 3.945484e-22
1.546129e+01 3.824689e-22
1.549633e+01 3.703653e-22
1.553146e+01 3.582306e-22
1.556666e+01 3.460717e-22
1.560195e+01 3.343442e-22
1.563731e+01 3.305146e-22
1.567276e+01 3.266753e-22
1.570828e+01 3.228284e-22
1.574389e+01 3.189718e-22
1.577957e+01 3.151076e-22
1.581534e+01 3.129881e-22
1.585118e+01 3.132059e-22
1.588711e+01 3.134242e-22
1.592313e+01 3.136430e-22
1.595922e+01 3.138622e-22
1.599539e+01 3.140820e-22
1.603165e+01 3.087205e-22
1.606798e+01 3.025342e-22
1.610440e+01 2.963325e-22
1.614091e+01 2.901155e-22
1.617749e+01 2.838866e-22
1.621416e+01 2.764215e-22
1.625091e+01 2.669951e-22
1.628775e+01 2.575457e-22
1.632467e+01 2.480757e-22
1.636167e+01 2.385852e-22
1.639876e+01 2.290716e-22
1.643593e+01 2.293661e-22
1.647318e+01 2.300011e-22
1.651052e+01 2.306377e-22
1.654794e+01 2.312757e-22
1.658545e+01 2.319152e-22
1.662304e+01 2.305173e-22
1.666072e+01 2.278257e-22
1.669849e+01 2.251276e-22
1.673634e+01 2.224237e-22
1.677427e+01 2.197142e-22
1.681229e+01 2.149829e-22
1.685040e+01 2.060112e-22
1.688859e+01 1.970207e-22
1.692687e+01 1.880090e-22
1.696524e+01 1.789762e-22
1.700370e+01 1.708224e-22
1.704224e+01 1.711272e-22
1.708087e+01 1.714327e-22
1.711958e+01 1.717388e-22
1.715839e+01 1.720457e-22
1.719728e+01 1.723533e-22
1.723626e+01 1.666019e-22
1.727533e+01 1.603817e-22
1.731448e+01 1.541487e-22
1.735373e+01 1.478998e-22
1.739306e+01 1.416382e-22
1.743249e+01 1.373802e-22
1.747200e+01 1.335459e-22
1.751160e+01 1.297028e-22
1.755130e+01 1.258499e-22
1.759108e+01 1.219894e-22
1.763095e+01 1.209761e-22
1.767092e+01 1.207854e-22
1.771097e+01 1.205944e-22
1.775111e+01 1.204029e-22
1.779135e+01 1.202110e-22
1.783168e+01 1.184002e-22
1.787209e+01 1.161430e-22
1.791260e+01 1.138802e-22
1.795320e+01 1.116124e-22
1.799390e+01 1.093390e-22
1.803468e+01 1.070057e-22
1.807556e+01 1.046569e-22
1.811653e+01 1.023030e-22
1.815760e+01 9.994329e-23
1.819875e+01 9.757901e-23
1.824000e+01 9.643498e-23
1.828135e+01 9.532659e-23
1.832278e+01 9.421605e-23
1.836432e+01 9.310256e-23
1.840594e+01 9.175217e-23
1.844766e+01 8.898500e-23
1.848947e+01 8.621187e-23
1.853138e+01 8.343210e-23
1.857339e+01 8.064570e-23
1.861549e+01 7.842379e-23
1.865768e+01 7.717919e-23
1.869997e+01 7.593164e-23
1.874236e+01 7.468114e-23
1.878484e+01 7.342799e-23
1.882742e+01 7.169682e-23
1.887009e+01 6.969878e-23
1.891287e+01 6.769558e-23
1.895573e+01 6.568865e-23
1.899870e+01 6.367656e-23
1.904176e+01 6.276496e-23
1.908492e+01 6.188572e-23
1.912818e+01 6.100444e-23
1.917154e+01 6.012112e-23
1.921499e+01 5.936217e-23
1.925855e+01 5.884153e-23
1.930220e+01 5.831981e-23
1.934595e+01 5.779690e-23
1.938980e+01 5.727279e-23
1.943375e+01 5.607895e-23
1.947780e+01 5.467988e-23
1.952195e+01 5.327765e-23
1.956620e+01 5.187223e-23
1.961055e+01 5.062882e-23
1.965500e+01 4.991297e-23
1.969955e+01 4.919552e-23
1.974420e+01 4.847645e-23
1.978896e+01 4.775562e-23
1.983381e+01 4.685577e-23
1.987877e+01 4.589559e-23
1.992383e+01 4.493327e-23
1.996898e+01 4.396903e-23
2.001425e+01 4.364315e-23
2.005961e+01 4.471458e-23
2.010508e+01 4.578861e-23
2.015065e+01 4.686500e-23
2.019633e+01 4.794399e-23
2.024210e+01 4.590308e-23
2.028798e+01 4.358446e-23
2.033397e+01 4.126028e-23
2.038006e+01 3.893105e-23
2.042626e+01 3.772635e-23
2.047255e+01 3.737908e-23
2.051896e+01 3.703092e-23
2.056547e+01 3.668201e-23
2.061208e+01 3.626255e-23
2.065880e+01 3.564215e-23
2.070563e+01 3.502028e-23
2.075256e+01 3.439709e-23
2.079960e+01 3.377244e-23
2.084674e+01 3.357930e-23
2.089400e+01 3.338938e-23
2.094136e+01 3.319906e-23
2.098882e+01 3.300834e-23
2.103640e+01 3.237361e-23
2.108408e+01 3.160104e-23
2.113187e+01 3.082668e-23
2.117977e+01 3.005054e-23
2.122777e+01 2.959316e-23
2.127589e+01 2.936861e-23
2.132411e+01 2.914360e-23
2.137245e+01 2.891802e-23
2.142089e+01 2.858205e-23
2.146945e+01 2.809990e-23
2.151811e+01 2.761675e-23
2.156688e+01 2.713252e-23
2.161577e+01 2.669026e-23
2.166476e+01 2.633795e-23
2.171387e+01 2.598477e-23
2.176309e+01 2.563081e-23
2.181242e+01 2.536628e-23
2.186186e+01 2.536989e-23
2.191141e+01 2.537352e-23
2.196108e+01 2.537715e-23
2.201085e+01 2.522010e-23
2.206075e+01 2.448476e-23
2.211075e+01 2.374795e-23
2.216087e+01 2.300937e-23
2.221110e+01 2.240817e-23
2.226144e+01 2.229674e-23
2.231190e+01 2.218505e-23
2.236247e+01 2.207311e-23
2.241316e+01 2.190921e-23
2.246396e+01 2.159716e-23
2.251488e+01 2.128439e-23
2.256591e+01 2.097093e-23
2.261706e+01 2.067677e-23
2.266833e+01 2.042206e-23
2.271971e+01 2.016680e-23
2.277121e+01 1.991094e-23
2.282282e+01 1.953716e-23
2.287455e+01 1.901409e-23
2.292640e+01 1.848980e-23
2.297837e+01 1.796429e-23
2.303045e+01 1.773416e-23
2.308265e+01 1.771460e-23
2.313497e+01 1.769499e-23
2.318741e+01 1.767534e-23
2.323997e+01 1.750216e-23
2.329265e+01 1.728013e-23
2.334544e+01 1.705763e-23
2.339836e+01 1.683459e-23
2.345139e+01 1.690816e-23
2.350455e+01 1.699141e-23
2.355783e+01 1.707485e-23
2.361122e+01 1.707768e-23
2.366474e+01 1.677617e-23
2.371838e+01 1.647397e-23
2.377214e+01 1.617110e-23
2.382603e+01 1.584479e-23
2.388003e+01 1.549345e-23
2.393416e+01 1.514127e-23
2.398841e+01 1.478831e-23
2.404278e+01 1.479217e-23
2.409728e+01 1.489316e-23
2.415190e+01 1.499437e-23
2.420664e+01 1.508679e-23
2.426151e+01 1.511399e-23
2.431650e+01 1.514124e-23
2.437162e+01 1.516856e-23
2.442686e+01 1.505046e-23
2.448223e+01 1.477800e-23
2.453772e+01 1.450495e-23
2.459334e+01 1.423126e-23
2.464908e+01 1.406623e-23
2.470495e+01 1.391566e-23
2.476095e+01 1.376475e-23
2.481707e+01 1.367412e-23
2.487333e+01 1.372223e-23
2.492970e+01 1.377044e-23
2.498621e+01 1.381878e-23
2.504285e+01 1.368496e-23
2.509961e+01 1.349209e-23
2.515650e+01 1.329878e-23
2.521352e+01 1.314953e-23
2.527067e+01 1.314344e-23
2.532795e+01 1.313734e-23
2.538536e+01 1.313123e-23
2.544290e+01 1.305644e-23
2.550057e+01 1.295799e-23
2.555837e+01 1.285932e-23
2.561630e+01 1.277704e-23
2.567437e+01 1.273707e-23
2.573256e+01 1.269701e-23
2.579089e+01 1.265686e-23
2.584935e+01 1.254703e-23
2.590794e+01 1.242409e-23
2.596666e+01 1.230087e-23
2.602552e+01 1.223929e-23
2.608451e+01 1.225866e-23
2.614363e+01 1.227808e-23
2.620289e+01 1.229686e-23
2.626228e+01 1.230246e-23
2.632181e+01 1.230808e-23
2.638147e+01 1.231371e-23
2.644127e+01 1.227534e-23
2.650120e+01 1.221709e-23
2.656127e+01 1.215871e-23
2.662148e+01 1.205269e-23
2.668182e+01 1.186062e-23
2.674230e+01 1.166811e-23
2.680291e+01 1.148538e-23
2.686367e+01 1.150498e-23
2.692456e+01 1.152462e-23
2.698558e+01 1.154430e-23
2.704675e+01 1.159853e-23
2.710806e+01 1.166354e-23
2.716950e+01 1.172869e-23
2.723108e+01 1.168511e-23
2.729281e+01 1.153430e-23
2.735467e+01 1.138318e-23
2.741667e+01 1.128962e-23
2.747882e+01 1.135367e-23
2.754110e+01 1.141786e-23
2.760353e+01 1.149398e-23
2.766609e+01 1.176709e-23
2.772880e+01 1.204087e-23
2.779165e+01 1.231525e-23
2.785465e+01 1.201268e-23
2.791779e+01 1.162099e-23
2.798107e+01 1.122843e-23
2.804449e+01 1.109235e-23
2.810806e+01 1.106570e-23
2.817177e+01 1.103899e-23
2.823562e+01 1.098409e-23
2.829962e+01 1.090672e-23
2.836377e+01 1.082916e-23
2.842806e+01 1.073534e-23
2.849249e+01 1.062048e-23
2.855708e+01 1.050535e-23
2.862180e+01 1.044122e-23
2.868668e+01 1.047804e-23
2.875170e+01 1.051494e-23
2.881687e+01 1.051863e-23
2.888219e+01 1.042678e-23
2.894766e+01 1.033471e-23
2.901327e+01 1.025570e-23
2.907903e+01 1.022889e-23
2.914494e+01 1.020201e-23
2.921101e+01 1.019419e-23
2.927722e+01 1.028216e-23
2.934358e+01 1.037033e-23
2.941009e+01 1.043210e-23
2.947675e+01 1.034490e-23
2.954356e+01 1.025751e-23
2.961053e+01 1.022146e-23
2.967765e+01 1.046228e-23
2.974491e+01 1.070360e-23
2.981234e+01 1.084885e-23
2.987991e+01 1.056187e-23
2.994764e+01 1.027421e-23
3.001552e+01 1.004560e-23
3.008355e+01 1.001829e-23
3.015174e+01 9.990915e-24
3.022008e+01 9.939661e-24
3.028858e+01 9.830905e-24
3.035723e+01 9.721912e-24
3.042604e+01 9.608349e-24
3.049501e+01 9.487417e-24
3.056413e+01 9.366223e-24
3.063341e+01 9.339388e-24
3.070284e+01 9.414323e-24
3.077244e+01 9.489442e-24
3.084219e+01 9.494610e-24
3.091209e+01 9.453890e-24
3.098216e+01 9.413071e-24
3.105239e+01 9.368203e-24
3.112277e+01 9.321890e-24
3.119331e+01 9.275471e-24
3.126402e+01 9.271510e-24
3.133488e+01 9.271999e-24
3.140591e+01 9.268766e-24
3.147709e+01 9.224414e-24
3.154844e+01 9.179956e-24
3.161995e+01 9.162190e-24
3.169162e+01 9.213778e-24
3.176346e+01 9.265489e-24
3.183545e+01 9.203802e-24
3.190761e+01 9.024695e-24
3.197994e+01 8.845167e-24
3.205242e+01 8.787757e-24
3.212507e+01 8.777196e-24
3.219789e+01 8.766611e-24
3.227087e+01 8.706467e-24
3.234402e+01 8.644704e-24
3.241733e+01 8.584484e-24
3.249081e+01 8.529555e-24
3.256445e+01 8.474507e-24
3.263827e+01 8.508848e-24
3.271225e+01 8.626604e-24
3.278639e+01 8.744614e-24
3.286071e+01 8.643072e-24
3.293519e+01 8.491921e-24
3.300984e+01 8.354349e-24
3.308467e+01 8.308371e-24
3.315966e+01 8.262295e-24
3.323482e+01 8.217672e-24
3.331015e+01 8.174758e-24
3.338565e+01 8.131746e-24
3.346132e+01 8.089608e-24
3.353717e+01 8.047597e-24
3.361319e+01 8.004302e-24
3.368937e+01 7.955234e-24
3.376574e+01 7.906044e-24
3.384227e+01 7.893920e-24
3.391898e+01 7.911965e-24
3.399586e+01 7.930049e-24
3.407292e+01 7.949902e-24
3.415015e+01 7.969896e-24
3.422756e+01 7.957892e-24
3.430514e+01 7.887773e-24
3.438289e+01 7.817500e-24
3.446083e+01 7.819688e-24
3.453894e+01 7.842354e-24
3.461723e+01 7.850754e-24
3.469569e+01 7.808323e-24
3.477434e+01 7.765790e-24
3.485316e+01 7.785236e-24
3.493216e+01 7.834757e-24
3.501133e+01 7.863081e-24
3.509069e+01 7.763608e-24
3.517023e+01 7.663910e-24
3.524995e+01 7.611674e-24
3.532985e+01 7.587806e-24
3.540993e+01 7.576004e-24
3.549019e+01 7.649998e-24
3.557063e+01 7.724157e-24
3.565126e+01 7.704628e-24
3.573207e+01 7.631154e-24
3.581306e+01 7.565911e-24
3.589424e+01 7.544272e-24
3.597559e+01 7.522588e-24
3.605714e+01 7.508222e-24
3.613887e+01 7.496980e-24
3.622078e+01 7.494875e-24
3.630288e+01 7.519781e-24
3.638517e+01 7.544745e-24
3.646764e+01 7.484564e-24
3.655030e+01 7.405521e-24
3.663314e+01 7.354442e-24
3.671618e+01 7.345534e-24
3.679940e+01 7.336607e-24
3.688281e+01 7.368780e-24
3.696641e+01 7.401325e-24
3.705020e+01 7.401766e-24
3.713418e+01 7.380628e-24
3.721835e+01 7.350448e-24
3.730271e+01 7.287859e-24
3.738726e+01 7.225130e-24
3.747201e+01 7.254278e-24
3.755694e+01 7.299804e-24
3.764207e+01 1.147444e-23
3.772739e+01 1.989400e-23
3.781291e+01 2.576761e-23
3.789862e+01 1.719197e-23
3.798452e+01 8.597320e-24
3.807062e+01 7.008394e-24
3.815691e+01 6.959410e-24
3.824340e+01 6.928338e-24
3.833008e+01 6.915131e-24
3.841696e+01 6.908402e-24
3.850404e+01 6.928543e-24
3.859131e+01 6.948728e-24
3.867879e+01 6.892908e-24
3.876646e+01 6.828561e-24
3.885433e+01 6.799813e-24
3.894240e+01 6.793116e-24
3.903066e+01 6.777611e-24
3.911913e+01 6.745506e-24
3.920780e+01 6.712237e-24
3.929667e+01 6.667551e-24
3.938575e+01 6.622759e-24
3.947502e+01 6.640485e-24
3.956449e+01 6.670171e-24
3.965417e+01 6.654449e-24
3.974405e+01 6.608813e-24
3.983414e+01 6.591060e-24
3.992443e+01 6.619240e-24
4.001492e+01 6.642271e-24
4.010562e+01 6.638897e-24
4.019653e+01 6.635515e-24
4.028764e+01 6.622501e-24
4.037896e+01 6.609076e-24
4.047048e+01 6.606832e-24
4.056222e+01 6.607937e-24
4.065416e+01 6.581598e-24
4.074630e+01 6.536012e-24
4.083866e+01 6.475830e-24
4.093123e+01 6.395339e-24
4.102400e+01 6.501641e-24
4.111699e+01 7.145203e-24
4.121019e+01 7.648801e-24
4.130360e+01 6.998927e-24
4.139722e+01 6.347592e-24
4.149105e+01 6.319468e-24
4.158510e+01 6.310396e-24
4.167935e+01 6.295655e-24
4.177383e+01 6.279816e-24
4.186851e+01 6.288979e-24
4.196341e+01 6.307749e-24
4.205853e+01 6.290786e-24
4.215386e+01 6.251371e-24
4.224941e+01 6.222566e-24
4.234517e+01 6.203713e-24
4.244116e+01 6.199157e-24
4.253735e+01 6.213736e-24
4.263377e+01 6.232253e-24
4.273041e+01 6.258070e-24
4.282726e+01 6.267697e-24
4.292434e+01 6.235778e-24
4.302163e+01 6.231513e-24
4.311915e+01 6.324444e-24
4.321688e+01 6.386755e-24
4.331484e+01 6.301248e-24
4.341302e+01 6.223115e-24
4.351142e+01 6.194396e-24
4.361004e+01 6.167617e-24
4.370889e+01 6.158490e-24
4.380797e+01 6.148347e-24
4.390726e+01 6.126784e-24
4.400678e+01 6.104353e-24
4.410653e+01 6.070665e-24
4.420650e+01 6.039068e-24
4.430671e+01 6.038603e-24
4.440713e+01 6.040229e-24
4.450779e+01 6.069296e-24
4.460867e+01 6.089657e-24
4.470978e+01 6.016581e-24
4.481112e+01 5.949991e-24
4.491270e+01 5.937343e-24
4.501450e+01 5.927449e-24
4.511653e+01 5.934314e-24
4.521879e+01 5.938219e-24
4.532129e+01 5.928890e-24
4.542401e+01 5.918110e-24
4.552697e+01 5.902597e-24
4.563017e+01 5.882716e-24
4.573359e+01 5.852283e-24
4.583726e+01 5.828292e-24
4.594115e+01 5.815887e-24
4.604528e+01 5.820878e-24
4.614965e+01 5.848580e-24
4.625426e+01 5.843550e-24
4.635910e+01 5.808009e-24
4.646418e+01 5.790853e-24
4.656950e+01 5.785453e-24
4.667505e+01 5.781027e-24
4.678085e+01 5.776992e-24
4.688688e+01 5.782152e-24
4.699316e+01 5.789357e-24
4.709968e+01 5.750063e-24
4.720644e+01 5.710447e-24
4.731344e+01 5.717017e-24
4.742068e+01 5.720349e-24
4.752817e+01 5.710038e-24
4.763589e+01 5.699736e-24
4.774387e+01 5.689472e-24
4.785209e+01 5.688831e-24
4.796055e+01 5.698607e-24
4.806926e+01 5.696780e-24
4.817822e+01 5.688314e-24
4.828742e+01 5.664921e-24
4.839687e+01 5.637752e-24
4.850657e+01 5.622685e-24
4.861651e+01 5.612466e-24
4.872671e+01 5.627877e-24
4.883716e+01 5.622824e-24
4.894785e+01 5.577244e-24
4.905880e+01 5.545666e-24
4.917000e+01 5.526558e-24
4.928145e+01 5.528048e-24
4.939315e+01 5.537160e-24
4.950511e+01 5.523477e-24
4.961732e+01 5.507642e-24
4.972978e+01 5.488305e-24
4.984251e+01 5.482391e-24
4.995548e+01 5.498762e-24
5.006871e+01 5.494510e-24
5.018220e+01 5.476829e-24
5.029594e+01 5.455046e-24
5.040995e+01 5.433509e-24
5.052421e+01 5.422971e-24
5.063873e+01 5.414098e-24
5.075351e+01 5.408519e-24
5.086855e+01 5.416398e-24
5.098385e+01 5.433451e-24
5.109941e+01 5.411467e-24
5.121524e+01 5.387811e-24
5.133132e+01 5.395484e-24
5.144767e+01 5.390154e-24
5.156429e+01 5.366009e-24
5.168116e+01 5.345640e-24
5.179831e+01 5.326911e-24
5.191572e+01 5.329160e-24
5.203339e+01 5.330765e-24
5.215133e+01 5.329953e-24
5.226954e+01 5.316028e-24
5.238802e+01 5.292874e-24
5.250676e+01 5.280565e-24
5.262577e+01 5.276520e-24
5.274506e+01 5.298096e-24
5.286461e+01 5.305252e-24
5.298444e+01 5.300095e-24
5.310453e+01 5.299418e-24
5.322490e+01 5.313485e-24
5.334555e+01 5.381669e-24
5.346646e+01 5.385713e-24
5.358765e+01 5.336976e-24
5.370911e+01 5.319333e-24
5.383085e+01 5.309808e-24
5.395287e+01 5.313899e-24
5.407516e+01 5.364590e-24
5.419773e+01 5.444680e-24
5.432058e+01 5.352881e-24
5.444370e+01 5.309960e-24
5.456711e+01 5.362256e-24
5.469079e+01 5.376656e-24
5.481476e+01 5.377314e-24
5.493900e+01 5.378171e-24
5.506353e+01 5.333271e-24
5.518834e+01 5.244235e-24
5.531343e+01 5.208718e-24
5.543881e+01 5.193549e-24
5.556447e+01 5.211644e-24
5.569041e+01 5.185113e-24
5.581664e+01 5.149866e-24
5.594316e+01 5.173546e-24
5.606996e+01 5.246170e-24
5.619705e+01 5.358774e-24
5.632443e+01 5.286110e-24
5.645210e+01 5.228853e-24
5.658006e+01 5.200513e-24
5.670830e+01 5.162927e-24
5.683684e+01 5.125295e-24
5.696567e+01 5.091912e-24
5.709479e+01 5.122612e-24
5.722420e+01 5.175264e-24
5.735391e+01 5.221907e-24
5.748391e+01 5.205345e-24
5.761421e+01 5.159845e-24
5.774480e+01 5.162990e-24
5.787568e+01 5.151297e-24
5.800687e+01 5.137776e-24
5.813835e+01 5.288394e-24
5.827013e+01 5.722567e-24
5.840221e+01 6.389299e-24
5.853458e+01 5.999607e-24
5.866726e+01 5.621537e-24
5.880024e+01 5.255549e-24
5.893352e+01 5.287565e-24
5.906710e+01 5.272987e-24
5.920098e+01 5.211795e-24
5.933517e+01 5.117146e-24
5.946966e+01 5.127088e-24
5.960446e+01 5.237640e-24
5.973956e+01 5.431210e-24
5.987497e+01 1.027796e-23
6.001068e+01 1.752194e-23
6.014670e+01 8.674343e-24
6.028304e+01 5.202840e-24
6.041968e+01 5.183534e-24
6.055663e+01 5.093650e-24
6.069389e+01 5.043604e-24
6.083146e+01 5.012625e-24
6.096934e+01 4.983750e-24
6.110754e+01 4.982951e-24
6.124605e+01 4.989807e-24
6.138487e+01 4.995906e-24
6.152401e+01 4.988731e-24
6.166346e+01 4.973519e-24
6.180323e+01 4.951418e-24
6.194331e+01 4.964094e-24
6.208372e+01 4.999498e-24
6.222444e+01 5.028446e-24
6.236548e+01 4.952851e-24
6.250684e+01 4.912137e-24
6.264852e+01 4.893169e-24
6.279052e+01 4.894339e-24
6.293285e+01 4.876940e-24
6.307549e+01 4.860134e-24
6.321846e+01 4.849121e-24
6.336176e+01 4.865702e-24
6.350538e+01 4.860895e-24
6.364932e+01 4.842055e-24
6.379359e+01 4.811190e-24
6.393819e+01 4.786801e-24
6.408311e+01 4.778744e-24
6.422837e+01 4.781569e-24
6.437395e+01 4.779901e-24
6.451986e+01 4.897928e-24
6.466611e+01 4.905156e-24
6.481268e+01 4.760409e-24
6.495959e+01 4.770135e-24
6.510683e+01 4.768268e-24
6.525440e+01 4.784984e-24
6.540231e+01 4.839457e-24
6.555055e+01 4.783532e-24
6.569913e+01 4.757263e-24
6.584805e+01 4.740658e-24
6.599730e+01 4.713138e-24
6.614690e+01 4.685516e-24
6.629683e+01 4.677590e-24
6.644710e+01 4.690813e-24
6.659771e+01 4.726693e-24
6.674867e+01 4.707748e-24
6.689996e+01 4.730527e-24
6.705160e+01 4.750132e-24
6.720358e+01 4.720622e-24
6.735591e+01 4.679632e-24
6.750858e+01 4.651366e-24
6.766160e+01 4.633376e-24
6.781496e+01 4.623405e-24
6.796867e+01 4.617445e-24
6.812274e+01 4.662763e-24
6.827715e+01 4.676105e-24
6.843191e+01 4.640666e-24
6.858701e+01 4.591850e-24
6.874248e+01 4.573387e-24
6.889829e+01 4.576328e-24
6.905446e+01 4.591523e-24
6.921098e+01 4.606802e-24
6.936786e+01 4.590342e-24
6.952509e+01 4.558291e-24
6.968268e+01 4.544547e-24
6.984063e+01 4.551099e-24
6.999893e+01 4.557654e-24
7.015759e+01 4.535497e-24
7.031661e+01 4.542192e-24
7.047600e+01 4.546121e-24
7.063574e+01 4.538608e-24
7.079585e+01 4.542453e-24
7.095632e+01 4.514553e-24
7.111715e+01 4.512346e-24
7.127835e+01 4.509591e-24
7.143991e+01 4.506202e-24
7.160184e+01 4.534441e-24
7.176413e+01 4.529469e-24
7.192680e+01 4.519556e-24
7.208983e+01 4.507256e-24
7.225323e+01 4.497393e-24
7.241700e+01 4.494094e-24
7.258115e+01 4.489385e-24
7.274566e+01 4.507030e-24
7.291055e+01 4.486872e-24
7.307581e+01 4.468341e-24
7.324145e+01 4.474238e-24
7.340746e+01 4.474753e-24
7.357385e+01 4.439851e-24
7.374062e+01 4.445843e-24
7.390776e+01 4.438312e-24
7.407528e+01 4.454687e-24
7.424318e+01 4.488277e-24
7.441147e+01 4.447198e-24
7.458013e+01 4.435560e-24
7.474918e+01 4.432396e-24
7.491861e+01 4.454452e-24
7.508842e+01 4.450791e-24
7.525862e+01 4.417832e-24
7.542921e+01 4.453427e-24
7.560018e+01 4.784089e-24
7.577154e+01 4.525254e-24
7.594328e+01 4.464435e-24
7.611542e+01 4.468347e-24
7.628795e+01 4.443309e-24
7.646086e+01 4.392444e-24
7.663417e+01 4.375844e-24
7.680787e+01 4.390395e-24
7.698197e+01 4.352978e-24
7.715646e+01 4.357891e-24
7.733135e+01 4.361363e-24
7.750663e+01 4.358771e-24
7.768231e+01 4.357738e-24
7.785839e+01 4.353326e-24
7.803487e+01 4.338873e-24
7.821174e+01 4.347077e-24
7.838902e+01 4.316560e-24
7.856670e+01 4.319410e-24
7.874478e+01 4.335842e-24
7.892327e+01 4.326697e-24
7.910216e+01 4.310540e-24
7.928146e+01 4.321590e-24
7.946116e+01 4.342508e-24
7.964127e+01 4.323827e-24
7.982179e+01 4.292349e-24
8.000272e+01 4.292726e-24
8.018405e+01 4.298608e-24
8.036580e+01 4.301404e-24
8.054796e+01 4.285102e-24
8.073054e+01 4.271556e-24
8.091353e+01 4.277747e-24
8.109693e+01 4.272726e-24
8.128074e+01 4.255116e-24
8.146498e+01 4.247548e-24
8.164963e+01 4.255074e-24
8.183470e+01 4.282452e-24
8.202019e+01 4.252640e-24
8.220610e+01 4.252899e-24
8.239243e+01 4.282886e-24
8.257919e+01 4.263626e-24
8.276637e+01 4.245738e-24
8.295397e+01 4.232723e-24
8.314199e+01 4.218393e-24
8.333045e+01 4.227967e-24
8.351933e+01 4.249915e-24
8.370864e+01 4.243566e-24
8.389838e+01 4.226638e-24
8.408854e+01 4.216038e-24
8.427914e+01 4.211985e-24
8.447017e+01 4.227194e-24
8.466164e+01 4.229369e-24
8.485353e+01 4.196273e-24
8.504587e+01 4.181585e-24
8.523864e+01 4.184354e-24
8.543184e+01 4.189834e-24
8.562548e+01 4.188284e-24
8.581957e+01 4.174165e-24
8.601409e+01 4.169487e-24
8.620905e+01 4.167244e-24
8.640446e+01 4.194976e-24
8.660031e+01 4.156294e-24
8.679660e+01 4.163117e-24
8.699334e+01 4.135246e-24
8.719052e+01 4.153857e-24
8.738815e+01 4.161434e-24
8.758623e+01 4.139535e-24
8.778475e+01 4.148422e-24
8.798373e+01 4.153151e-24
8.818316e+01 4.154623e-24
8.838304e+01 4.119797e-24
8.858337e+01 4.139091e-24
8.878416e+01 4.111045e-24
8.898540e+01 4.096924e-24
8.918710e+01 4.101777e-24
8.938925e+01 4.093866e-24
8.959187e+01 4.205114e-24
8.979494e+01 4.113856e-24
8.999847e+01 4.107571e-24
9.020247e+01 4.071404e-24
9.040692e+01 4.077258e-24
9.061184e+01 4.071025e-24
9.081723e+01 4.078167e-24
9.102308e+01 4.096806e-24
9.122939e+01 4.082809e-24
9.143618e+01 4.103672e-24
9.164343e+01 4.118959e-24
9.185116e+01 4.086463e-24
9.205935e+01 4.099097e-24
9.226802e+01 4.073538e-24
9.247715e+01 4.063588e-24
9.268677e+01 4.056438e-24
9.289686e+01 4.055567e-24
9.310742e+01 4.048899e-24
9.331846e+01 4.032755e-24
9.352998e+01 4.052481e-24
9.374198e+01 4.035621e-24
9.395446e+01 4.032650e-24
9.416742e+01 4.028379e-24
9.438086e+01 4.014656e-24
9.459479e+01 4.009043e-24
9.480921e+01 3.998294e-24
9.502410e+01 4.009012e-24
9.523949e+01 4.005543e-24
9.545536e+01 4.002012e-24
9.567173e+01 3.998804e-24
9.588858e+01 3.988385e-24
9.610593e+01 3.995822e-24
9.632376e+01 3.990569e-24
9.654210e+01 3.980498e-24
9.676092e+01 3.991142e-24
9.698024e+01 3.971393e-24
9.720006e+01 3.995016e-24
9.742038e+01 3.971682e-24
9.764120e+01 3.955720e-24
9.786252e+01 3.956242e-24
9.808434e+01 3.952158e-24
9.830666e+01 3.950828e-24
9.852948e+01 3.961013e-24
9.875282e+01 3.940661e-24
9.897665e+01 3.932423e-24
9.920100e+01 3.937864e-24
9.942585e+01 3.929017e-24
9.965121e+01 3.928722e-24
9.987709e+01 3.935651e-24
1.001035e+02 3.918218e-24
1.003304e+02 3.906833e-24
1.005578e+02 3.901416e-24
1.007857e+02 3.901631e-24
1.010142e+02 3.898606e-24
1.012431e+02 3.892229e-24
1.014726e+02 3.890744e-24
1.017026e+02 3.886543e-24
1.019331e+02 3.881787e-24
1.021642e+02 3.878215e-24
1.023958e+02 3.880502e-24
1.026278e+02 3.873082e-24
1.028605e+02 3.874755e-24
1.030936e+02 3.866068e-24
1.033273e+02 3.863593e-24
1.035615e+02 3.860427e-24
1.037962e+02 3.865656e-24
1.040315e+02 3.854231e-24
1.042673e+02 3.854200e-24
1.045036e+02 3.854825e-24
1.047405e+02 3.845730e-24
1.049779e+02 3.849259e-24
1.052159e+02 3.845741e-24
1.054544e+02 3.839997e-24
1.056934e+02 3.837601e-24
1.059330e+02 3.830036e-24
1.061731e+02 3.830959e-24
1.064137e+02 3.823871e-24
1.066549e+02 3.825567e-24
1.068967e+02 3.824753e-24
1.071390e+02 3.817326e-24
1.073818e+02 3.819409e-24
1.076252e+02 3.818030e-24
1.078692e+02 3.814992e-24
1.081137e+02 3.809736e-24
1.083587e+02 3.805539e-24
1.086043e+02 3.803909e-24
1.088505e+02 3.800063e-24
1.090972e+02 3.791575e-24
1.093445e+02 3.793966e-24
1.095923e+02 3.793673e-24
1.098407e+02 3.782933e-24
1.100897e+02 3.785330e-24
1.103393e+02 3.780978e-24
1.105894e+02 3.774236e-24
1.108400e+02 3.781792e-24
1.110913e+02 3.776186e-24
1.113431e+02 3.773159e-24
1.115954e+02 3.763377e-24
1.118484e+02 3.762263e-24
1.121019e+02 3.760722e-24
1.123560e+02 3.768554e-24
1.126107e+02 3.751506e-24
1.128659e+02 3.752092e-24
1.131218e+02 3.753604e-24
1.133782e+02 3.744239e-24
1.136351e+02 3.747261e-24
1.138927e+02 3.737209e-24
1.141509e+02 3.735011e-24
1.144096e+02 3.732269e-24
1.146689e+02 3.733248e-24
1.149288e+02 3.733495e-24
1.151894e+02 3.738430e-24
1.154504e+02 3.731461e-24
1.157121e+02 3.721069e-24
1.159744e+02 3.729096e-24
1.162373e+02 3.712919e-24
1.165007e+02 3.717260e-24
1.167648e+02 3.720916e-24
1.170295e+02 3.711567e-24
1.172947e+02 3.707566e-24
1.175606e+02 3.711247e-24
1.178271e+02 3.698074e-24
1.180941e+02 3.708137e-24
1.183618e+02 3.705960e-24
1.186301e+02 3.696308e-24
1.188990e+02 3.685875e-24
1.191685e+02 3.682504e-24
1.194386e+02 3.681824e-24
1.197093e+02 3.689225e-24
1.199807e+02 3.677450e-24
1.202526e+02 3.688565e-24
1.205252e+02 3.682953e-24
1.207984e+02 3.666720e-24
1.210722e+02 3.675332e-24
1.213466e+02 3.672069e-24
1.216217e+02 3.660479e-24
1.218973e+02 3.666081e-24
1.221736e+02 3.654333e-24
1.224506e+02 3.665256e-24
1.227281e+02 3.660019e-24
1.230063e+02 3.646575e-24
1.232851e+02 3.649178e-24
1.235645e+02 3.649136e-24
1.238446e+02 3.637993e-24
1.241253e+02 3.643664e-24
1.244067e+02 3.632536e-24
1.246887e+02 3.644786e-24
1.249713e+02 3.638524e-24
1.252546e+02 3.628375e-24
1.255385e+02 3.626249e-24
1.258230e+02 3.630679e-24
1.261082e+02 3.620314e-24
1.263941e+02 3.624618e-24
1.266805e+02 3.626178e-24
1.269677e+02 3.611925e-24
1.272555e+02 3.620693e-24
1.275439e+02 3.620508e-24
1.278330e+02 3.602050e-24
1.281228e+02 3.599377e-24
1.284132e+02 3.597968e-24
1.287043e+02 3.608644e-24
1.289960e+02 3.613300e-24
1.292884e+02 3.620449e-24
1.295814e+02 3.587214e-24
1.298751e+02 3.584393e-24
1.301695e+02 3.581847e-24
1.304646e+02 3.581817e-24
1.307603e+02 3.578407e-24
1.310567e+02 3.574480e-24
1.313537e+02 3.572069e-24
1.316515e+02 3.578617e-24
1.319499e+02 3.572021e-24
1.322489e+02 3.591665e-24
1.325487e+02 3.568356e-24
1.328492e+02 3.559646e-24
1.331503e+02 3.557223e-24
1.334521e+02 3.554994e-24
1.337546e+02 3.552933e-24
1.340577e+02 3.563933e-24
1.343616e+02 3.556029e-24
1.346661e+02 3.545864e-24
1.349714e+02 3.583568e-24
1.352773e+02 3.578423e-24
1.355839e+02 3.537921e-24
1.358913e+02 3.535964e-24
1.361993e+02 3.533765e-24
1.365080e+02 3.531618e-24
1.368174e+02 3.528926e-24
1.371275e+02 3.526323e-24
1.374384e+02 3.523895e-24
1.377499e+02 3.522009e-24
1.380621e+02 3.519658e-24
1.383750e+02 3.517240e-24
1.386887e+02 3.515127e-24
1.390030e+02 3.512426e-24
1.393181e+02 3.510329e-24
1.396339e+02 3.508094e-24
1.399504e+02 3.527967e-24
1.402676e+02 3.503484e-24
1.405856e+02 3.501242e-24
1.409042e+02 3.498453e-24
1.412236e+02 3.496384e-24
1.415437e+02 3.494078e-24
1.418645e+02 3.491695e-24
1.421861e+02 3.489785e-24
1.425084e+02 3.487181e-24
1.428314e+02 3.485069e-24
1.431551e+02 3.483019e-24
1.434796e+02 3.480518e-24
1.438048e+02 3.484458e-24
1.441308e+02 3.477597e-24
1.444575e+02 3.474247e-24
1.447849e+02 3.471658e-24
1.451131e+02 3.469518e-24
1.454420e+02 3.467251e-24
1.457717e+02 3.464792e-24
1.461021e+02 3.462955e-24
1.464332e+02 3.460598e-24
1.467652e+02 3.458512e-24
1.470978e+02 3.456282e-24
1.474312e+02 3.459165e-24
1.477654e+02 3.457672e-24
1.481003e+02 3.452360e-24
1.484360e+02 3.447996e-24
1.487725e+02 3.445801e-24
1.491097e+02 3.443068e-24
1.494477e+02 3.446552e-24
1.497864e+02 3.444540e-24
1.501259e+02 3.443938e-24
1.504662e+02 3.446415e-24
1.508073e+02 3.435182e-24
1.511491e+02 3.431469e-24
1.514917e+02 3.428157e-24
1.518351e+02 3.426038e-24
1.521792e+02 3.424362e-24
1.525242e+02 3.422099e-24
1.528699e+02 3.419856e-24
1.532164e+02 3.418149e-24
1.535637e+02 3.418276e-24
1.539118e+02 3.413291e-24
1.542606e+02 3.411141e-24
1.546103e+02 3.408944e-24
1.549607e+02 3.407231e-24
1.553119e+02 3.404939e-24
1.556640e+02 3.403236e-24
1.560168e+02 3.401666e-24
1.563705e+02 3.398879e-24
1.567249e+02 3.396621e-24
1.570801e+02 3.394417e-24
1.574362e+02 3.392505e-24
1.577930e+02 3.390660e-24
1.581507e+02 3.388501e-24
1.585092e+02 3.386733e-24
1.588684e+02 3.384435e-24
1.592285e+02 3.382315e-24
1.595895e+02 3.380563e-24
1.599512e+02 3.378837e-24
1.603137e+02 3.376642e-24
1.606771e+02 3.374452e-24
1.610413e+02 3.372420e-24
1.614063e+02 3.370629e-24
1.617722e+02 3.369018e-24
1.621389e+02 3.366980e-24
1.625064e+02 3.364642e-24
1.628747e+02 3.365096e-24
1.632439e+02 3.364368e-24
1.636139e+02 3.358761e-24
1.639848e+02 3.356780e-24
1.643565e+02 3.354886e-24
1.647290e+02 3.353092e-24
1.651024e+02 3.351230e-24
1.654766e+02 3.349146e-24
1.658517e+02 3.347412e-24
1.662276e+02 3.345567e-24
1.666044e+02 3.347291e-24
1.669820e+02 3.345364e-24
1.673605e+02 3.343731e-24
1.677399e+02 3.341420e-24
1.681201e+02 3.339195e-24
1.685011e+02 3.338132e-24
1.688831e+02 3.336746e-24
1.692659e+02 3.335926e-24
1.696495e+02 3.335895e-24
1.700341e+02 3.332412e-24
1.704195e+02 3.327647e-24
1.708058e+02 3.322946e-24
1.711929e+02 3.320927e-24
1.715810e+02 3.319619e-24
1.719699e+02 3.317323e-24
1.723596e+02 3.315657e-24
1.727503e+02 3.319467e-24
1.731419e+02 3.311808e-24
1.735343e+02 3.309862e-24
1.739277e+02 3.308133e-24
1.743219e+02 3.306482e-24
1.747170e+02 3.307800e-24
1.751131e+02 3.302950e-24
1.755100e+02 3.300979e-24
1.759078e+02 3.302294e-24
1.763065e+02 3.297452e-24
1.767062e+02 3.295876e-24
1.771067e+02 3.294098e-24
1.775081e+02 3.292366e-24
1.779105e+02 3.290578e-24
1.783137e+02 3.288823e-24
1.787179e+02 3.287173e-24
1.791230e+02 3.285723e-24
1.795290e+02 3.283076e-24
1.799359e+02 3.298417e-24
1.803438e+02 3.281419e-24
1.807526e+02 3.278446e-24
1.811623e+02 3.276918e-24
1.815729e+02 3.274879e-24
1.819844e+02 3.273465e-24
1.823969e+02 3.273002e-24
1.828104e+02 3.270111e-24
1.832247e+02 3.268326e-24
1.836400e+02 3.266503e-24
1.840563e+02 3.264789e-24
1.844735e+02 3.263246e-24
1.848916e+02 3.261741e-24
1.853107e+02 3.259788e-24
1.857307e+02 3.257919e-24
1.861517e+02 3.256239e-24
1.865736e+02 3.254775e-24
1.869965e+02 3.253258e-24
1.874204e+02 3.251400e-24
1.878452e+02 3.250135e-24
1.882710e+02 3.250803e-24
1.886977e+02 3.247509e-24
1.891255e+02 3.245253e-24
1.895541e+02 3.243709e-24
1.899838e+02 3.241794e-24
1.904144e+02 3.240302e-24
1.908460e+02 3.238685e-24
1.912786e+02 3.237044e-24
1.917121e+02 3.236756e-24
1.921467e+02 3.234469e-24
1.925822e+02 3.232217e-24
1.930187e+02 3.230741e-24
1.934562e+02 3.229901e-24
1.938947e+02 3.228843e-24
1.943342e+02 3.226044e-24
1.947747e+02 3.224784e-24
1.952162e+02 3.223323e-24
1.956587e+02 3.221328e-24
1.961022e+02 3.220016e-24
1.965467e+02 3.218410e-24
1.969922e+02 3.216895e-24
1.974387e+02 3.215495e-24
1.978862e+02 3.213835e-24
1.983347e+02 3.212192e-24
1.987843e+02 3.210526e-24
1.992349e+02 3.209094e-24
1.996865e+02 3.207556e-24
2.001391e+02 3.207518e-24
2.005927e+02 3.204664e-24
2.010474e+02 3.203330e-24
2.015031e+02 3.203648e-24
2.019598e+02 3.200254e-24
2.024176e+02 3.199288e-24
2.028764e+02 3.197850e-24
2.033363e+02 3.196232e-24
2.037971e+02 3.194927e-24
2.042591e+02 3.193082e-24
2.047221e+02 3.191571e-24
2.051861e+02 3.190449e-24
2.056512e+02 3.188939e-24
2.061173e+02 3.187435e-24
2.065845e+02 3.185962e-24
2.070528e+02 3.184596e-24
2.075221e+02 3.183272e-24
2.079925e+02 3.181829e-24
2.084639e+02 3.180562e-24
2.089364e+02 3.179036e-24
2.094100e+02 3.177569e-24
2.098847e+02 3.176402e-24
2.103604e+02 3.175363e-24
2.108372e+02 3.174198e-24
2.113151e+02 3.172676e-24
2.117941e+02 3.171058e-24
2.122741e+02 3.169973e-24
2.127553e+02 3.168371e-24
2.132375e+02 3.166870e-24
2.137209e+02 3.165794e-24
2.142053e+02 3.164266e-24
2.146908e+02 3.163069e-24
2.151774e+02 3.161764e-24
2.156652e+02 3.160381e-24
2.161540e+02 3.159058e-24
2.166440e+02 3.157870e-24
2.171350e+02 3.156647e-24
2.176272e+02 3.155417e-24
2.181205e+02 3.153853e-24
2.186149e+02 3.152638e-24
2.191104e+02 3.151496e-24
2.196070e+02 3.150377e-24
2.201048e+02 3.148959e-24
2.206037e+02 3.149065e-24
2.211037e+02 3.146398e-24
2.216049e+02 3.145198e-24
2.221072e+02 3.144155e-24
2.226106e+02 3.142974e-24
2.231152e+02 3.141695e-24
2.236209e+02 3.140344e-24
2.241278e+02 3.143748e-24
2.246358e+02 3.138420e-24
2.251450e+02 3.137316e-24
2.256553e+02 3.145057e-24
2.261668e+02 3.183865e-24
2.266794e+02 3.158340e-24
2.271932e+02 3.145791e-24
2.277082e+02 3.137983e-24
2.282243e+02 3.134873e-24
2.287416e+02 3.133387e-24
2.292601e+02 3.131724e-24
2.297798e+02 3.131972e-24
2.303006e+02 3.134281e-24
2.308226e+02 3.133847e-24
2.313458e+02 3.131609e-24
2.318702e+02 3.134561e-24
2.323957e+02 3.138420e-24
2.329225e+02 3.135238e-24
2.334504e+02 3.136775e-24
2.339796e+02 3.132945e-24
2.345100e+02 3.141248e-24
2.350415e+02 3.138620e-24
2.355743e+02 3.135031e-24
2.361082e+02 3.132731e-24
2.366434e+02 3.128887e-24
2.371798e+02 3.126579e-24
2.377174e+02 3.121656e-24
2.382562e+02 3.115571e-24
2.387962e+02 3.114727e-24
2.393375e+02 3.113935e-24
2.398800e+02 3.114329e-24
2.404237e+02 3.112483e-24
2.409687e+02 3.110288e-24
2.415149e+02 3.109356e-24
2.420623e+02 3.109406e-24
2.426110e+02 3.101045e-24
2.431609e+02 3.100464e-24
2.437120e+02 3.109646e-24
2.442645e+02 3.098356e-24
2.448181e+02 3.097506e-24
2.453730e+02 3.096354e-24
2.459292e+02 3.095361e-24
2.464866e+02 3.094409e-24
2.470453e+02 3.093427e-24
2.476053e+02 3.092811e-24
2.481665e+02 3.091895e-24
2.487290e+02 3.090728e-24
2.492928e+02 3.090169e-24
2.498579e+02 3.088735e-24
2.504242e+02 3.087764e-24
2.509918e+02 3.087401e-24
2.515607e+02 3.086441e-24
2.521309e+02 3.105333e-24
2.527024e+02 3.106950e-24
2.532752e+02 3.099705e-24
2.538493e+02 3.104122e-24
2.544247e+02 3.104266e-24
2.550014e+02 3.098526e-24
2.555794e+02 3.100545e-24
2.561587e+02 3.079232e-24
2.567393e+02 3.078578e-24
2.573212e+02 3.077703e-24
2.579045e+02 3.087909e-24
2.584891e+02 3.187158e-24
2.590750e+02 3.075686e-24
2.596622e+02 3.074342e-24
2.602508e+02 3.108560e-24
2.608407e+02 3.112571e-24
2.614319e+02 3.104541e-24
2.620245e+02 3.125724e-24
2.626184e+02 3.135458e-24
2.632136e+02 3.114412e-24
2.638102e+02 3.069012e-24
2.644082e+02 3.153936e-24
2.650075e+02 3.067528e-24
2.656082e+02 3.066899e-24
2.662102e+02 3.065986e-24
2.668137e+02 3.155262e-24
2.674184e+02 3.064498e-24
2.680246e+02 3.063915e-24
2.686321e+02 3.063368e-24
2.692410e+02 3.062232e-24
2.698512e+02 3.061725e-24
2.704629e+02 3.061334e-24
2.710759e+02 3.060541e-24
2.716904e+02 3.059948e-24
2.723062e+02 3.059573e-24
2.729234e+02 3.058797e-24
2.735421e+02 3.058094e-24
2.741621e+02 3.117253e-24
2.747835e+02 3.056481e-24
2.754063e+02 3.055746e-24
2.760306e+02 3.055666e-24
2.766562e+02 3.055033e-24
2.772833e+02 3.062338e-24
2.779118e+02 3.053978e-24
2.785418e+02 3.052900e-24
2.791731e+02 3.052207e-24
2.798059e+02 3.051998e-24
2.804401e+02 3.051406e-24
2.810758e+02 3.050654e-24
2.817129e+02 3.050107e-24
2.823514e+02 3.049557e-24
2.829914e+02 3.048906e-24
2.836329e+02 3.048520e-24
2.842758e+02 3.048092e-24
2.849201e+02 3.047725e-24
2.855659e+02 3.047104e-24
2.862132e+02 3.046539e-24
2.868619e+02 3.045855e-24
2.875121e+02 3.045600e-24
2.881638e+02 3.044930e-24
2.888170e+02 3.044345e-24
2.894716e+02 3.043955e-24
2.901278e+02 3.097813e-24
2.907854e+02 3.103322e-24
2.914445e+02 3.042792e-24
2.921051e+02 3.042268e-24
2.927672e+02 3.041792e-24
2.934308e+02 3.041629e-24
2.940959e+02 3.041048e-24
2.947625e+02 3.040405e-24
2.954306e+02 3.040061e-24
2.961003e+02 3.039672e-24
2.967714e+02 3.039253e-24
2.974441e+02 3.039192e-24
2.981183e+02 3.038891e-24
2.987940e+02 3.038556e-24
2.994713e+02 3.038204e-24
3.001501e+02 3.043470e-24
3.008304e+02 3.037166e-24
3.015123e+02 3.036744e-24
3.021957e+02 3.036454e-24
3.028807e+02 3.044098e-24
3.035672e+02 3.054269e-24
3.042553e+02 3.035605e-24
3.049449e+02 3.035241e-24
3.056361e+02 7.988925e-24
3.063289e+02 3.449404e-23
3.070232e+02 3.035068e-24
3.077191e+02 3.034928e-24
3.084166e+02 3.033802e-24
3.091157e+02 3.033615e-24
3.098163e+02 3.033476e-24
3.105186e+02 3.033146e-24
3.112224e+02 3.032918e-24
3.119279e+02 3.032781e-24
3.126349e+02 3.032513e-24
3.133435e+02 3.032318e-24
3.140538e+02 3.032159e-24
3.147656e+02 3.034068e-24
3.154791e+02 3.033310e-24
3.161941e+02 3.031643e-24
3.169108e+02 3.031678e-24
3.176292e+02 3.033291e-24
3.183491e+02 3.031010e-24
3.190707e+02 3.030964e-24
3.197939e+02 3.030887e-24
3.205188e+02 3.030789e-24
3.212453e+02 3.030543e-24
3.219734e+02 3.030350e-24
3.227032e+02 3.030825e-24
3.234347e+02 3.031060e-24
3.241678e+02 3.030258e-24
3.249026e+02 3.030210e-24
3.256390e+02 3.030325e-24
3.263771e+02 3.030222e-24
3.271169e+02 3.030003e-24
3.278583e+02 3.029964e-24
3.286015e+02 3.029891e-24
3.293463e+02 3.029916e-24
3.300928e+02 3.029924e-24
3.308410e+02 3.029930e-24
3.315909e+02 3.029925e-24
3.323425e+02 3.029937e-24
3.330958e+02 3.029981e-24
3.338508e+02 3.032013e-24
3.346076e+02 3.030517e-24
3.353660e+02 3.031540e-24
3.361261e+02 3.030500e-24
3.368880e+02 3.030120e-24
3.376516e+02 3.038870e-24
3.384170e+02 3.041520e-24
3.391840e+02 3.039723e-24
3.399529e+02 3.040805e-24
3.407234e+02 3.042550e-24
3.414957e+02 3.042443e-24
3.422697e+02 3.042441e-24
3.430455e+02 3.042840e-24
3.438231e+02 3.043802e-24
3.446024e+02 3.042293e-24
3.453835e+02 3.043083e-24
3.461664e+02 3.042866e-24
3.469510e+02 3.041382e-24
3.477374e+02 3.042707e-24
3.485256e+02 3.043240e-24
3.493156e+02 3.041039e-24
3.501074e+02 3.041281e-24
3.509010e+02 3.040227e-24
3.516963e+02 3.040215e-24
3.524935e+02 3.038684e-24
3.532925e+02 3.035987e-24
3.540933e+02 3.034013e-24
3.548959e+02 3.039779e-24
3.557003e+02 3.053056e-24
3.565065e+02 3.072064e-24
3.573146e+02 3.069674e-24
3.581245e+02 3.069369e-24
3.589363e+02 3.063883e-24
3.597498e+02 3.064477e-24
3.605653e+02 3.057444e-24
3.613825e+02 3.055822e-24
3.622017e+02 3.054455e-24
3.630226e+02 3.059541e-24
3.638455e+02 3.064849e-24
3.646702e+02 3.060990e-24
3.654968e+02 3.056131e-24
3.663252e+02 3.055519e-24
3.671556e+02 3.053521e-24
3.679878e+02 3.056668e-24
3.688219e+02 3.058672e-24
3.696578e+02 3.057317e-24
3.704957e+02 3.061882e-24
3.713355e+02 3.062996e-24
3.721772e+02 3.054726e-24
3.730208e+02 3.059981e-24
3.738663e+02 3.060668e-24
3.747137e+02 3.058654e-24
3.755631e+02 3.074057e-24
3.764143e+02 3.044908e-24
3.772675e+02 3.045209e-24
3.781227e+02 3.045546e-24
3.789797e+02 3.046264e-24
3.798387e+02 3.046755e-24
3.806997e+02 3.047380e-24
3.815626e+02 3.061252e-24
3.824275e+02 3.048465e-24
3.832943e+02 3.049108e-24
3.841631e+02 3.049854e-24
3.850338e+02 3.050687e-24
3.859066e+02 3.051103e-24
3.867813e+02 3.061112e-24
3.876580e+02 3.052512e-24
3.885367e+02 3.052876e-24
3.894173e+02 3.053553e-24
3.903000e+02 3.053896e-24
3.911847e+02 3.054599e-24
3.920714e+02 3.055392e-24
3.929601e+02 3.056118e-24
3.938508e+02 3.057018e-24
3.947435e+02 3.066632e-24
3.956382e+02 3.059818e-24
3.965350e+02 3.061355e-24
3.974338e+02 3.067306e-24
3.983346e+02 3.066091e-24
3.992375e+02 3.063924e-24
4.001424e+02 3.062067e-24
4.010494e+02 3.062797e-24
4.019585e+02 3.063661e-24
4.028696e+02 3.064736e-24
4.037827e+02 3.065274e-24
4.046979e+02 3.066223e-24
4.056153e+02 3.066992e-24
4.065346e+02 3.067802e-24
4.074561e+02 3.068774e-24
4.083797e+02 3.069673e-24
4.093053e+02 3.070657e-24
4.102331e+02 3.071623e-24
4.111629e+02 3.072583e-24
4.120949e+02 3.073432e-24
4.130290e+02 3.074062e-24
4.139651e+02 3.074928e-24
4.149035e+02 3.076108e-24
4.158439e+02 3.077071e-24
4.167865e+02 3.078127e-24
4.177312e+02 3.079091e-24
4.186780e+02 3.079928e-24
4.196270e+02 3.081710e-24
4.205782e+02 3.082407e-24
4.215315e+02 3.083279e-24
4.224869e+02 3.084292e-24
4.234445e+02 3.085294e-24
4.244044e+02 3.086128e-24
4.253663e+02 3.087321e-24
4.263305e+02 3.097521e-24
4.272968e+02 3.093622e-24
4.282653e+02 3.090838e-24
4.292361e+02 3.091667e-24
4.302090e+02 3.092773e-24
4.311841e+02 3.094108e-24
4.321615e+02 3.100108e-24
4.331410e+02 3.103317e-24
4.341228e+02 3.100620e-24
4.351068e+02 3.200445e-24
4.360930e+02 3.113783e-24
4.370815e+02 3.114638e-24
4.380722e+02 3.119553e-24
4.390652e+02 3.127207e-24
4.400604e+02 3.122647e-24
4.410578e+02 3.130448e-24
4.420575e+02 3.134958e-24
4.430595e+02 3.134875e-24
4.440638e+02 3.154343e-24
4.450703e+02 3.137780e-24
4.460791e+02 3.137756e-24
4.470902e+02 3.131522e-24
4.481036e+02 3.140484e-24
4.491193e+02 3.130296e-24
4.501373e+02 3.141127e-24
4.511576e+02 3.135446e-24
4.521802e+02 3.136871e-24
4.532052e+02 3.139790e-24
4.542324e+02 3.123305e-24
4.552620e+02 3.136591e-24
4.562939e+02 3.142242e-24
4.573282e+02 3.142193e-24
4.583648e+02 3.141388e-24
4.594037e+02 3.143255e-24
4.604450e+02 3.144934e-24
4.614887e+02 3.145713e-24
4.625347e+02 3.153383e-24
4.635831e+02 3.153731e-24
4.646339e+02 3.241910e-24
4.656871e+02 3.438387e-24
4.667426e+02 3.182935e-24
4.678005e+02 3.165156e-24
4.688609e+02 3.157651e-24
4.699236e+02 3.163679e-24
4.709888e+02 3.159694e-24
4.720563e+02 3.165567e-24
4.731263e+02 3.164607e-24
4.741987e+02 3.174457e-24
4.752736e+02 3.175104e-24
4.763508e+02 3.154681e-24
4.774306e+02 3.156482e-24
4.785127e+02 3.158360e-24
4.795974e+02 3.160513e-24
4.806844e+02 3.189584e-24
4.817740e+02 3.191296e-24
4.828660e+02 3.193205e-24
4.839605e+02 3.202865e-24
4.850574e+02 3.199327e-24
4.861569e+02 3.217180e-24
4.872588e+02 3.221790e-24
4.883633e+02 3.242614e-24
4.894702e+02 3.228409e-24
4.905797e+02 3.234876e-24
4.916916e+02 3.241498e-24
4.928061e+02 3.269748e-24
4.939232e+02 3.279600e-24
4.950427e+02 3.332624e-24
4.961648e+02 4.449053e-24
4.972894e+02 3.397936e-24
4.984166e+02 3.297068e-24
4.995463e+02 3.285457e-24
5.006786e+02 3.283229e-24
5.018135e+02 3.283141e-24
5.029509e+02 3.284013e-24
5.040909e+02 3.285186e-24
5.052335e+02 3.286503e-24
5.063787e+02 3.288173e-24
5.075265e+02 3.290604e-24
5.086769e+02 3.242562e-24
5.098298e+02 3.244644e-24
5.109855e+02 3.246587e-24
5.121437e+02 3.248652e-24
5.133045e+02 3.250715e-24
5.144680e+02 3.252876e-24
5.156341e+02 3.254459e-24
5.168029e+02 3.259409e-24
5.179743e+02 3.259022e-24
5.191483e+02 3.261190e-24
5.203251e+02 3.267477e-24
5.215045e+02 3.267833e-24
5.226865e+02 3.263894e-24
5.238713e+02 3.275356e-24
5.250587e+02 3.264234e-24
5.262488e+02 3.268089e-24
5.274416e+02 3.260586e-24
5.286372e+02 3.269358e-24
5.298354e+02 3.271116e-24
5.310363e+02 3.274147e-24
5.322400e+02 3.295681e-24
5.334464e+02 3.297687e-24
5.346555e+02 3.283310e-24
5.358674e+02 3.299575e-24
5.370820e+02 3.299810e-24
5.382994e+02 3.302056e-24
5.395195e+02 3.304118e-24
5.407424e+02 3.277590e-24
5.419681e+02 3.279865e-24
5.431966e+02 3.281927e-24
5.444278e+02 3.287036e-24
5.456618e+02 3.287749e-24
5.468986e+02 3.289286e-24
5.481383e+02 3.296362e-24
5.493807e+02 3.310105e-24
5.506259e+02 3.324760e-24
5.518740e+02 3.330619e-24
5.531249e+02 3.328009e-24
5.543787e+02 3.346601e-24
5.556352e+02 3.364789e-24
5.568947e+02 3.378733e-24
5.581569e+02 3.386570e-24
5.594221e+02 3.391917e-24
5.606901e+02 3.405335e-24
5.619610e+02 3.401323e-24
5.632347e+02 3.408211e-24
5.645114e+02 3.386618e-24
5.657909e+02 3.382498e-24
5.670734e+02 3.371109e-24
5.683587e+02 3.353297e-24
5.696470e+02 3.328847e-24
5.709382e+02 3.332818e-24
5.722323e+02 3.345512e-24
5.735294e+02 3.366150e-24
5.748293e+02 3.388292e-24
5.761323e+02 3.415353e-24
5.774382e+02 3.426340e-24
5.787470e+02 3.412632e-24
5.800588e+02 3.424042e-24
5.813736e+02 3.410495e-24
5.826914e+02 3.409422e-24
5.840121e+02 3.411934e-24
5.853359e+02 3.390965e-24
5.866626e+02 3.412457e-24
5.879924e+02 3.412727e-24
5.893252e+02 3.446121e-24
5.906609e+02 3.404386e-24
5.919998e+02 3.396459e-24
5.933416e+02 3.398661e-24
5.946865e+02 3.398053e-24
5.960344e+02 3.407392e-24
5.973854e+02 3.408955e-24
5.987395e+02 3.412084e-24
6.000966e+02 3.450218e-24
6.014568e+02 3.452598e-24
6.028201e+02 3.455557e-24
6.041865e+02 3.445923e-24
6.055560e+02 3.460784e-24
6.069286e+02 3.455296e-24
6.083043e+02 3.444524e-24
6.096831e+02 3.431509e-24
6.110650e+02 3.431635e-24
6.124501e+02 3.420487e-24
6.138383e+02 3.451919e-24
6.152296e+02 3.463346e-24
6.166241e+02 3.469859e-24
6.180218e+02 3.465938e-24
6.194226e+02 3.467082e-24
6.208266e+02 3.461444e-24
6.222338e+02 3.456194e-24
6.236442e+02 3.459209e-24
6.250578e+02 3.461833e-24
6.264746e+02 3.465616e-24
6.278946e+02 3.462459e-24
6.293178e+02 3.467432e-24
6.307442e+02 3.473015e-24
6.321739e+02 3.481427e-24
6.336068e+02 3.485873e-24
6.350430e+02 3.487702e-24
6.364824e+02 3.488620e-24
6.379251e+02 3.487173e-24
6.393710e+02 3.488695e-24
6.408202e+02 3.491648e-24
6.422728e+02 3.497469e-24
6.437286e+02 3.505897e-24
6.451877e+02 3.505395e-24
6.466501e+02 3.514520e-24
6.481158e+02 3.521473e-24
6.495848e+02 3.521448e-24
6.510572e+02 3.520423e-24
6.525329e+02 3.519507e-24
6.540120e+02 3.523327e-24
6.554944e+02 3.527208e-24
6.569802e+02 3.528744e-24
6.584693e+02 3.532189e-24
6.599618e+02 3.535636e-24
6.614577e+02 3.539238e-24
6.629570e+02 3.543189e-24
6.644597e+02 3.546615e-24
6.659658e+02 3.550458e-24
6.674753e+02 3.556440e-24
6.689882e+02 3.558095e-24
6.705046e+02 3.565084e-24
6.720244e+02 3.565380e-24
6.735476e+02 3.568903e-24
6.750743e+02 3.572790e-24
6.766045e+02 3.576534e-24
6.781381e+02 3.580784e-24
6.796752e+02 3.587911e-24
6.812158e+02 3.596912e-24
6.827599e+02 3.611266e-24
6.843074e+02 3.623909e-24
6.858585e+02 3.608319e-24
6.874131e+02 3.609423e-24
6.889712e+02 3.630311e-24
6.905329e+02 3.620023e-24
6.920981e+02 3.622075e-24
6.936668e+02 3.626174e-24
6.952391e+02 3.630450e-24
6.968150e+02 3.641433e-24
6.983944e+02 3.647916e-24
6.999774e+02 3.648411e-24
7.015640e+02 3.651478e-24
7.031542e+02 3.656298e-24
7.047480e+02 3.662646e-24
7.063454e+02 3.666678e-24
7.079465e+02 3.667648e-24
7.095511e+02 3.672070e-24
7.111594e+02 3.675941e-24
7.127714e+02 3.679117e-24
7.143869e+02 3.682914e-24
7.160062e+02 3.692512e-24
7.176291e+02 3.698225e-24
7.192558e+02 3.703221e-24
7.208860e+02 3.702976e-24
7.225200e+02 3.707008e-24
7.241577e+02 3.712493e-24
7.257992e+02 3.707125e-24
7.274443e+02 3.721900e-24
7.290931e+02 3.725725e-24
7.307457e+02 3.728868e-24
7.324021e+02 3.734266e-24
7.340622e+02 3.739175e-24
7.357260e+02 3.745302e-24
7.373936e+02 3.748184e-24
7.390651e+02 3.753262e-24
7.407402e+02 3.758244e-24
7.424193e+02 3.759335e-24
7.441020e+02 3.762944e-24
7.457887e+02 3.767321e-24
7.474791e+02 3.766369e-24
7.491734e+02 3.771045e-24
7.508715e+02 3.780036e-24
7.525734e+02 3.789260e-24
7.542793e+02 3.792230e-24
7.559889e+02 3.799007e-24
7.577025e+02 3.801228e-24
7.594199e+02 3.807987e-24
7.611413e+02 3.812892e-24
7.628665e+02 3.814993e-24
7.645956e+02 3.825708e-24
7.663287e+02 3.828101e-24
7.680657e+02 3.834812e-24
7.698066e+02 3.836697e-24
7.715515e+02 3.839464e-24
7.733003e+02 3.843122e-24
7.750531e+02 3.844654e-24
7.768099e+02 3.849598e-24
7.785707e+02 3.855221e-24
7.803354e+02 3.860174e-24
7.821042e+02 3.865120e-24
7.838769e+02 3.870190e-24
7.856537e+02 3.877988e-24
7.874345e+02 3.888621e-24
7.892193e+02 3.885582e-24
7.910082e+02 3.892152e-24
7.928011e+02 3.897226e-24
7.945981e+02 3.903377e-24
7.963992e+02 3.910499e-24
7.982043e+02 3.911559e-24
8.000136e+02 3.934886e-24
8.018269e+02 3.934864e-24
8.036444e+02 3.930972e-24
8.054660e+02 3.932825e-24
8.072917e+02 3.941841e-24
8.091215e+02 3.947491e-24
8.109555e+02 3.948869e-24
8.127936e+02 3.954086e-24
8.146360e+02 3.968151e-24
8.164824e+02 3.969379e-24
8.183331e+02 3.979381e-24
8.201880e+02 3.983018e-24
8.220471e+02 3.995407e-24
8.239104e+02 3.998553e-24
8.257779e+02 4.001503e-24
8.276496e+02 4.009892e-24
8.295256e+02 4.011296e-24
8.314058e+02 4.010084e-24
8.332903e+02 4.015237e-24
8.351791e+02 4.021057e-24
8.370722e+02 4.026630e-24
8.389695e+02 4.032367e-24
8.408711e+02 4.037883e-24
8.427771e+02 4.043409e-24
8.446874e+02 4.049267e-24
8.466020e+02 4.055139e-24
8.485209e+02 4.061040e-24
8.504442e+02 4.066921e-24
8.523719e+02 4.072670e-24
8.543039e+02 4.087506e-24
8.562403e+02 4.083584e-24
8.581811e+02 4.089781e-24
8.601263e+02 4.096057e-24
8.620759e+02 4.101955e-24
8.640299e+02 4.107606e-24
8.659884e+02 4.113598e-24
8.679512e+02 4.119620e-24
8.699186e+02 4.126156e-24
8.718904e+02 4.131700e-24
8.738666e+02 4.138068e-24
8.758474e+02 4.144217e-24
8.778326e+02 4.150356e-24
8.798224e+02 4.156700e-24
8.818166e+02 4.162458e-24
8.838154e+02 4.168392e-24
8.858187e+02 4.175225e-24
8.878265e+02 4.180737e-24
8.898389e+02 4.186896e-24
8.918558e+02 4.193016e-24
8.938773e+02 4.199181e-24
8.959035e+02 4.205565e-24
8.979341e+02 4.211709e-24
8.999694e+02 4.218155e-24
9.020094e+02 4.225407e-24
9.040539e+02 4.231083e-24
9.061031e+02 4.237098e-24
9.081569e+02 4.244202e-24
9.102153e+02 4.250419e-24
9.122785e+02 4.256623e-24
9.143463e+02 4.263195e-24
9.164188e+02 4.269874e-24
9.184960e+02 4.277164e-24
9.205779e+02 4.284628e-24
9.226645e+02 4.290474e-24
9.247558e+02 4.296904e-24
9.268519e+02 4.305490e-24
9.289528e+02 4.311402e-24
9.310584e+02 4.317407e-24
9.331688e+02 4.324705e-24
9.352839e+02 4.331620e-24
9.374039e+02 4.338200e-24
9.395286e+02 4.345403e-24
9.416582e+02 4.352472e-24
9.437926e+02 4.360003e-24
9.459319e+02 4.366904e-24
9.480760e+02 4.373466e-24
9.502249e+02 4.381866e-24
9.523787e+02 4.388755e-24
9.545374e+02 4.396703e-24
9.567010e+02 4.402346e-24
9.588695e+02 4.412621e-24
9.610429e+02 4.419188e-24
9.632213e+02 4.428830e-24
9.654046e+02 4.436726e-24
9.675928e+02 4.443445e-24
9.697860e+02 4.463505e-24
9.719841e+02 4.473415e-24
9.741873e+02 4.476013e-24
9.763954e+02 4.474280e-24
9.786086e+02 4.478857e-24
9.808267e+02 4.485578e-24
9.830499e+02 4.489433e-24
9.852781e+02 4.499839e-24
9.875114e+02 4.505172e-24
9.897497e+02 4.518642e-24
9.919931e+02 4.533797e-24
9.942416e+02 4.532796e-24
9.964952e+02 4.537356e-24
9.987539e+02 4.555401e-24
1.001018e+03 4.577177e-24
1.003287e+03 4.575875e-24
1.005561e+03 4.579045e-24
1.007840e+03 4.596075e-24
1.010125e+03 4.629108e-24
1.012414e+03 4.618605e-24
1.014709e+03 4.635270e-24
1.017009e+03 4.614139e-24
1.019314e+03 4.621728e-24
1.021624e+03 4.615260e-24
1.023940e+03 4.620828e-24
1.026261e+03 4.629124e-24
1.028587e+03 4.633329e-24
1.030919e+03 4.646523e-24
1.033255e+03 4.650080e-24
1.035597e+03 4.657359e-24
1.037945e+03 4.665015e-24
1.040297e+03 4.672734e-24
1.042655e+03 4.681512e-24
1.045019e+03 4.689073e-24
1.047387e+03 4.697007e-24
1.049761e+03 4.705814e-24
1.052141e+03 4.713411e-24
1.054526e+03 4.722145e-24
1.056916e+03 4.732456e-24
1.059312e+03 4.741315e-24
1.061713e+03 4.749149e-24
1.064119e+03 4.756510e-24
1.066531e+03 4.763983e-24
1.068949e+03 4.771567e-24
1.071371e+03 4.782206e-24
1.073800e+03 4.797679e-24
1.076234e+03 4.811866e-24
1.078673e+03 4.812292e-24
1.081118e+03 4.850104e-24
1.083569e+03 4.879671e-24
1.086025e+03 4.981755e-24
1.088486e+03 4.986743e-24
1.090954e+03 4.938711e-24
1.093427e+03 4.996235e-24
1.095905e+03 4.931661e-24
1.098389e+03 4.907817e-24
1.100879e+03 4.907042e-24
1.103374e+03 4.916845e-24
1.105875e+03 4.917562e-24
1.108381e+03 4.926801e-24
1.110894e+03 4.924952e-24
1.113412e+03 4.932836e-24
1.115935e+03 4.940914e-24
1.118465e+03 4.945954e-24
1.121000e+03 4.956279e-24
1.123541e+03 4.959833e-24
1.126088e+03 4.968329e-24
1.128640e+03 4.976464e-24
1.131198e+03 4.984645e-24
1.133762e+03 4.991550e-24
1.136332e+03 5.000319e-24
1.138908e+03 5.009638e-24
1.141489e+03 5.017371e-24
1.144077e+03 5.024749e-24
1.146670e+03 5.033131e-24
1.149269e+03 5.043054e-24
1.151874e+03 5.052210e-24
1.154485e+03 5.058487e-24
1.157102e+03 5.067423e-24
1.159724e+03 5.077548e-24
1.162353e+03 5.087140e-24
1.164988e+03 5.096176e-24
1.167628e+03 5.104687e-24
1.170275e+03 5.113341e-24
1.172928e+03 5.123418e-24
1.175586e+03 5.132108e-24
1.178251e+03 5.141876e-24
1.180921e+03 5.150769e-24
1.183598e+03 5.159836e-24
1.186281e+03 5.169007e-24
1.188970e+03 5.178746e-24
1.191665e+03 5.187270e-24
1.194366e+03 5.197217e-24
1.197073e+03 5.205523e-24
1.199786e+03 5.213693e-24
1.202506e+03 5.223049e-24
1.205232e+03 5.233181e-24
1.207963e+03 5.241907e-24
1.210701e+03 5.250863e-24
1.213446e+03 5.260131e-24
1.216196e+03 5.269592e-24
1.218953e+03 5.279316e-24
1.221716e+03 5.290076e-24
1.224485e+03 5.299317e-24
1.227260e+03 5.309050e-24
1.230042e+03 5.318986e-24
1.232830e+03 5.329247e-24
1.235625e+03 5.339094e-24
1.238425e+03 5.349722e-24
1.241232e+03 5.358235e-24
1.244046e+03 5.368785e-24
1.246866e+03 5.381172e-24
1.249692e+03 5.391126e-24
1.252524e+03 5.401310e-24
1.255363e+03 5.410734e-24
1.258209e+03 5.420871e-24
1.261061e+03 5.431596e-24
1.263919e+03 5.441115e-24
1.266784e+03 5.450805e-24
1.269655e+03 5.460090e-24
1.272533e+03 5.471730e-24
1.275418e+03 5.482980e-24
1.278309e+03 5.491770e-24
1.281206e+03 5.502719e-24
1.284110e+03 5.511656e-24
1.287021e+03 5.523229e-24
1.289938e+03 5.533973e-24
1.292862e+03 5.544070e-24
1.295792e+03 5.555246e-24
1.298729e+03 5.566024e-24
1.301673e+03 5.576220e-24
1.304623e+03 5.585641e-24
1.307581e+03 5.595482e-24
1.310544e+03 5.606671e-24
1.313515e+03 5.617059e-24
1.316492e+03 5.625890e-24
1.319476e+03 5.637288e-24
1.322467e+03 5.647377e-24
1.325465e+03 5.658064e-24
1.328469e+03 5.668752e-24
1.331480e+03 5.679990e-24
1.334498e+03 5.690364e-24
1.337523e+03 5.706342e-24
1.340555e+03 5.725925e-24
1.343593e+03 5.739945e-24
1.346639e+03 5.744638e-24
1.349691e+03 5.747891e-24
1.352750e+03 5.757528e-24
1.355816e+03 5.768322e-24
1.358890e+03 5.780076e-24
1.361970e+03 5.790230e-24
1.365057e+03 5.803155e-24
1.368151e+03 5.813390e-24
1.371252e+03 5.823438e-24
1.374360e+03 5.834992e-24
1.377475e+03 5.847711e-24
1.380598e+03 5.858711e-24
1.383727e+03 5.870261e-24
1.386863e+03 5.881621e-24
1.390007e+03 5.891274e-24
1.393158e+03 5.901561e-24
1.396315e+03 5.911276e-24
1.399480e+03 5.922345e-24
1.402652e+03 5.932026e-24
1.405832e+03 5.943842e-24
1.409018e+03 5.954688e-24
1.412212e+03 5.965960e-24
1.415413e+03 5.979521e-24
1.418621e+03 5.990914e-24
1.421837e+03 6.001805e-24
1.425059e+03 6.014112e-24
1.428290e+03 6.024545e-24
1.431527e+03 6.036664e-24
1.434772e+03 6.049938e-24
1.438024e+03 6.063793e-24
1.441283e+03 6.073804e-24
1.444550e+03 6.085749e-24
1.447824e+03 6.099221e-24
1.451106e+03 6.111027e-24
1.454395e+03 6.125170e-24
1.457692e+03 6.138663e-24
1.460996e+03 6.150271e-24
1.464307e+03 6.160807e-24
1.467627e+03 6.172359e-24
1.470953e+03 6.186216e-24
1.474287e+03 6.203075e-24
1.477629e+03 6.210331e-24
1.480978e+03 6.225780e-24
1.484335e+03 6.235301e-24
1.487700e+03 6.246647e-24
1.491072e+03 6.264664e-24
1.494451e+03 6.272042e-24
1.497839e+03 6.279624e-24
1.501234e+03 6.292798e-24
1.504637e+03 6.300954e-24
1.508047e+03 6.315668e-24
1.511465e+03 6.325451e-24
1.514891e+03 6.338512e-24
1.518325e+03 6.350737e-24
1.521766e+03 6.362588e-24
1.525216e+03 6.374238e-24
1.528673e+03 6.388409e-24
1.532138e+03 6.401262e-24
1.535611e+03 6.413885e-24
1.539091e+03 6.427556e-24
1.542580e+03 6.440262e-24
1.546076e+03 6.453601e-24
1.549581e+03 6.465245e-24
1.553093e+03 6.479156e-24
1.556613e+03 6.493823e-24
1.560142e+03 6.512569e-24
1.563678e+03 6.521128e-24
1.567222e+03 6.534555e-24
1.570775e+03 6.546796e-24
1.574335e+03 6.558863e-24
1.577903e+03 6.573431e-24
1.581480e+03 6.585003e-24
1.585065e+03 6.597442e-24
1.588658e+03 6.611245e-24
1.592258e+03 6.625442e-24
1.595868e+03 6.637396e-24
1.599485e+03 6.650611e-24
1.603110e+03 6.664118e-24
1.606744e+03 6.675113e-24
1.610386e+03 6.689120e-24
1.614036e+03 6.700761e-24
1.617694e+03 6.714816e-24
1.621361e+03 6.728118e-24
1.625036e+03 6.741401e-24
1.628720e+03 6.753682e-24
1.632411e+03 6.768006e-24
1.636111e+03 6.779068e-24
1.639820e+03 6.794543e-24
1.643537e+03 6.810134e-24
1.647262e+03 6.825636e-24
1.650996e+03 6.840751e-24
1.654738e+03 6.854701e-24
1.658489e+03 6.869290e-24
1.662248e+03 6.884719e-24
1.666016e+03 6.899939e-24
1.669792e+03 6.910782e-24
1.673577e+03 6.923926e-24
1.677370e+03 6.938475e-24
1.681172e+03 6.951500e-24
1.684983e+03 6.964665e-24
1.688802e+03 6.979069e-24
1.692630e+03 6.994367e-24
1.696466e+03 7.008313e-24
1.700312e+03 7.022048e-24
1.704166e+03 7.036875e-24
1.708029e+03 7.050921e-24
1.711900e+03 7.064427e-24
1.715780e+03 7.079467e-24
1.719669e+03 7.094404e-24
1.723567e+03 7.107529e-24
1.727474e+03 7.120991e-24
1.731389e+03 7.137487e-24
1.735314e+03 7.153876e-24
1.739247e+03 7.170671e-24
1.743190e+03 7.186876e-24
1.747141e+03 7.203487e-24
1.751101e+03 7.219456e-24
1.755070e+03 7.232504e-24
1.759048e+03 7.248250e-24
1.763035e+03 7.261780e-24
1.767032e+03 7.275635e-24
1.771037e+03 7.286833e-24
1.775051e+03 7.300540e-24
1.779074e+03 7.313946e-24
1.783107e+03 7.327834e-24
1.787149e+03 7.342521e-24
1.791199e+03 7.363516e-24
1.795259e+03 7.374329e-24
1.799329e+03 7.389430e-24
1.803407e+03 7.411147e-24
1.807495e+03 7.429252e-24
1.811592e+03 7.441886e-24
1.815698e+03 7.457981e-24
1.819813e+03 7.473050e-24
1.823938e+03 7.485642e-24
1.828073e+03 7.501780e-24
1.832216e+03 7.518090e-24
1.836369e+03 7.529810e-24
1.840532e+03 7.545054e-24
1.844703e+03 7.559718e-24
1.848885e+03 7.575560e-24
1.853075e+03 7.590403e-24
1.857276e+03 7.606614e-24
1.861486e+03 7.624031e-24
1.865705e+03 7.639492e-24
1.869934e+03 7.654754e-24
1.874172e+03 7.670615e-24
1.878420e+03 7.687962e-24
1.882678e+03 7.706467e-24
1.886945e+03 7.721742e-24
1.891222e+03 7.741260e-24
1.895509e+03 7.754254e-24
1.899805e+03 7.770116e-24
1.904112e+03 7.785141e-24
1.908428e+03 7.806206e-24
1.912753e+03 7.819542e-24
1.917089e+03 7.836944e-24
1.921434e+03 7.851145e-24
1.925790e+03 7.865270e-24
1.930155e+03 7.883090e-24
1.934530e+03 7.899788e-24
1.938914e+03 7.913492e-24
1.943309e+03 7.933099e-24
1.947714e+03 7.947191e-24
1.952129e+03 7.960065e-24
1.956554e+03 7.982975e-24
1.960988e+03 8.001540e-24
1.965433e+03 8.023244e-24
1.969888e+03 8.035850e-24
1.974353e+03 8.055892e-24
1.978828e+03 8.073041e-24
1.983314e+03 8.085375e-24
1.987809e+03 8.105585e-24
1.992315e+03 8.125093e-24
1.996831e+03 8.144169e-24
2.001357e+03 8.160419e-24
2.005893e+03 8.180715e-24
2.010440e+03 8.201049e-24
2.014997e+03 8.224515e-24
2.019564e+03 8.238953e-24
2.024142e+03 8.250389e-24
2.028730e+03 8.267935e-24
2.033328e+03 8.280436e-24
2.037937e+03 8.295637e-24
2.042556e+03 8.309972e-24
2.047186e+03 8.331697e-24
2.051826e+03 8.343762e-24
2.056477e+03 8.364973e-24
2.061138e+03 8.378880e-24
2.065810e+03 8.398684e-24
2.070492e+03 8.416702e-24
2.075186e+03 8.438189e-24
2.079889e+03 8.461454e-24
2.084604e+03 8.480748e-24
2.089329e+03 8.501774e-24
2.094064e+03 8.522150e-24
2.098811e+03 8.536466e-24
2.103568e+03 8.552127e-24
2.108336e+03 8.562714e-24
2.113115e+03 8.587293e-24
2.117905e+03 8.605521e-24
2.122705e+03 8.620953e-24
2.127517e+03 8.637648e-24
2.132339e+03 8.655490e-24
2.137172e+03 8.673085e-24
2.142017e+03 8.689601e-24
2.146872e+03 8.710151e-24
2.151738e+03 8.726867e-24
2.156615e+03 8.746388e-24
2.161503e+03 8.764237e-24
2.166403e+03 8.783622e-24
2.171313e+03 8.805145e-24
2.176235e+03 8.829733e-24
2.181168e+03 8.842558e-24
2.186111e+03 8.861962e-24
2.191067e+03 8.875621e-24
2.196033e+03 8.901662e-24
2.201011e+03 8.919734e-24
2.206000e+03 8.938158e-24
2.211000e+03 8.955633e-24
2.216011e+03 8.971070e-24
2.221034e+03 8.992589e-24
2.226068e+03 9.020033e-24
2.231114e+03 9.044191e-24
2.236171e+03 9.052932e-24
2.241240e+03 9.077799e-24
2.246320e+03 9.108207e-24
2.251412e+03 9.123209e-24
2.256515e+03 9.148273e-24
2.261630e+03 9.179774e-24
2.266756e+03 9.196346e-24
2.271894e+03 9.219578e-24
2.277043e+03 9.244026e-24
2.282205e+03 9.251799e-24
2.287378e+03 9.277153e-24
2.292562e+03 9.288376e-24
2.297759e+03 9.304653e-24
2.302967e+03 9.325668e-24
2.308187e+03 9.335122e-24
2.313419e+03 9.368659e-24
2.318662e+03 9.386074e-24
2.323918e+03 9.391807e-24
2.329185e+03 9.413108e-24
2.334465e+03 9.442830e-24
2.339756e+03 9.464001e-24
2.345060e+03 9.470062e-24
2.350375e+03 9.520303e-24
2.355702e+03 9.533523e-24
2.361042e+03 9.564243e-24
2.366394e+03 9.588181e-24
2.371758e+03 9.622392e-24
2.377133e+03 9.639050e-24
2.382521e+03 9.658683e-24
2.387922e+03 9.677300e-24
2.393334e+03 9.707313e-24
2.398759e+03 9.720789e-24
2.404196e+03 9.742589e-24
2.409646e+03 9.768154e-24
2.415108e+03 9.785432e-24
2.420582e+03 9.802924e-24
2.426068e+03 9.829367e-24
2.431568e+03 9.839476e-24
2.437079e+03 9.874730e-24
2.442603e+03 9.887960e-24
2.448140e+03 9.922711e-24
2.453689e+03 9.933618e-24
2.459250e+03 9.973332e-24
2.464824e+03 9.995755e-24
2.470411e+03 1.002107e-23
2.476011e+03 1.003492e-23
2.481623e+03 1.007215e-23
2.487248e+03 1.007789e-23
2.492886e+03 1.008866e-23
2.498536e+03 1.011589e-23
2.504200e+03 1.011398e-23
2.509876e+03 1.014707e-23
2.515565e+03 1.017619e-23
2.521267e+03 1.020382e-23
2.526981e+03 1.023329e-23
2.532709e+03 1.024643e-23
2.538450e+03 1.028566e-23
2.544204e+03 1.029857e-23
2.549970e+03 1.032444e-23
2.555750e+03 1.028461e-23
2.561543e+03 1.031811e-23
2.567349e+03 1.035544e-23
2.573169e+03 1.035917e-23
2.579001e+03 1.039184e-23
2.584847e+03 1.042472e-23
2.590706e+03 1.042616e-23
2.596578e+03 1.045778e-23
2.602463e+03 1.047926e-23
2.608362e+03 1.052397e-23
2.614274e+03 1.052832e-23
2.620200e+03 1.054160e-23
2.626139e+03 1.057744e-23
2.632092e+03 1.059435e-23
2.638058e+03 1.062921e-23
2.644037e+03 1.063756e-23
2.650030e+03 1.066505e-23
2.656037e+03 1.070902e-23
2.662057e+03 1.074252e-23
2.668091e+03 1.074188e-23
2.674139e+03 1.075433e-23
2.680200e+03 1.078265e-23
2.686275e+03 1.081534e-23
2.692364e+03 1.084802e-23
2.698467e+03 1.086926e-23
2.704583e+03 1.090009e-23
2.710713e+03 1.091376e-23
2.716858e+03 1.096972e-23
2.723016e+03 1.094469e-23
2.729188e+03 1.100195e-23
2.735374e+03 1.102666e-23
2.741574e+03 1.103135e-23
2.747788e+03 1.105592e-23
2.754017e+03 1.119609e-23
2.760259e+03 1.119482e-23
2.766515e+03 1.123577e-23
2.772786e+03 1.123663e-23
2.779071e+03 1.124304e-23
2.785370e+03 1.127431e-23
2.791684e+03 1.131614e-23
2.798012e+03 1.133854e-23
2.804354e+03 1.138783e-23
2.810710e+03 1.141336e-23
2.817081e+03 1.142641e-23
2.823466e+03 1.144766e-23
2.829866e+03 1.146834e-23
2.836280e+03 1.152355e-23
2.842709e+03 1.155009e-23
2.849153e+03 1.156042e-23
2.855611e+03 1.160191e-23
2.862083e+03 1.159615e-23
2.868571e+03 1.165785e-23
2.875073e+03 1.168147e-23
2.881589e+03 1.169987e-23
2.888121e+03 1.175454e-23
2.894667e+03 1.178025e-23
2.901229e+03 1.191081e-23
2.907805e+03 1.187105e-23
2.914396e+03 1.190017e-23
2.921001e+03 1.190418e-23
2.927622e+03 1.193072e-23
2.934258e+03 1.193433e-23
2.940909e+03 1.195812e-23
2.947575e+03 1.196375e-23
2.954256e+03 1.199922e-23
2.960952e+03 1.203110e-23
2.967664e+03 1.205359e-23
2.974390e+03 1.208676e-23
2.981132e+03 1.209250e-23
2.987890e+03 1.213478e-23
2.994662e+03 1.216705e-23
3.001450e+03 1.225812e-23
3.008253e+03 1.219627e-23
3.015072e+03 1.221669e-23
3.021906e+03 1.229198e-23
3.028755e+03 1.234219e-23
3.035620e+03 1.237190e-23
3.042501e+03 1.238318e-23
3.049397e+03 1.246862e-23
3.056309e+03 1.250824e-23
3.063237e+03 1.248931e-23
3.070180e+03 1.247107e-23
3.077139e+03 1.253701e-23
3.084114e+03 1.260634e-23
3.091104e+03 1.261641e-23
3.098111e+03 1.260011e-23
3.105133e+03 1.262762e-23
3.112171e+03 1.263555e-23
3.119226e+03 1.276668e-23
3.126296e+03 1.273487e-23
3.133382e+03 1.273649e-23
3.140484e+03 1.280625e-23
3.147603e+03 1.281673e-23
3.154737e+03 1.288346e-23
3.161888e+03 1.289887e-23
3.169055e+03 1.296658e-23
3.176238e+03 1.290792e-23
3.183437e+03 1.295827e-23
3.190653e+03 1.303543e-23
3.197885e+03 1.303450e-23
3.205133e+03 1.310426e-23
3.212398e+03 1.311572e-23
3.219680e+03 1.317907e-23
3.226977e+03 1.313301e-23
3.234292e+03 1.321419e-23
3.241623e+03 1.325132e-23
3.248970e+03 1.322089e-23
3.256335e+03 1.329849e-23
3.263716e+03 1.330972e-23
3.271113e+03 1.328943e-23
3.278528e+03 1.343135e-23
3.285959e+03 1.342169e-23
3.293407e+03 1.345787e-23
3.300872e+03 1.351034e-23
3.308354e+03 1.354858e-23
3.315853e+03 1.357557e-23
3.323369e+03 1.362450e-23
3.330902e+03 1.369700e-23
3.338452e+03 1.379159e-23
3.346019e+03 1.376429e-23
3.353603e+03 1.384983e-23
3.361204e+03 1.385587e-23
3.368823e+03 1.393911e-23
3.376459e+03 1.394241e-23
3.384112e+03 1.402891e-23
3.391783e+03 1.409756e-23
3.399471e+03 1.413830e-23
3.407176e+03 1.413161e-23
3.414899e+03 1.408389e-23
3.422639e+03 1.423888e-23
3.430397e+03 1.417677e-23
3.438173e+03 1.418937e-23
3.445966e+03 1.426552e-23
3.453777e+03 1.418487e-23
3.461605e+03 1.428727e-23
3.469451e+03 1.418838e-23
3.477315e+03 1.429389e-23
3.485197e+03 1.431941e-23
3.493097e+03 1.426430e-23
3.501015e+03 1.426031e-23
3.508950e+03 1.436653e-23
3.516904e+03 1.450658e-23
3.524875e+03 1.452920e-23
3.532865e+03 1.454930e-23
3.540873e+03 1.455990e-23
3.548898e+03 1.461394e-23
3.556943e+03 1.469699e-23
3.565005e+03 1.483005e-23
3.573086e+03 1.491986e-23
3.581184e+03 1.476253e-23
3.589302e+03 1.486186e-23
3.597437e+03 1.494005e-23
3.605591e+03 1.470141e-23
3.613764e+03 1.472620e-23
3.621955e+03 1.478195e-23
3.630165e+03 1.508377e-23
3.638393e+03 1.511433e-23
3.646640e+03 1.510450e-23
3.654906e+03 1.519153e-23
3.663190e+03 1.523366e-23
3.671493e+03 1.527118e-23
3.679815e+03 1.522869e-23
3.688156e+03 1.526753e-23
3.696516e+03 1.526038e-23
3.704894e+03 1.533093e-23
3.713292e+03 1.526454e-23
3.721709e+03 1.548243e-23
3.730145e+03 1.555823e-23
3.738599e+03 1.566441e-23
3.747074e+03 1.557873e-23
3.755567e+03 1.561875e-23
3.764079e+03 1.564732e-23
3.772611e+03 1.579597e-23
3.781162e+03 1.578461e-23
3.789733e+03 1.584911e-23
3.798323e+03 1.592341e-23
3.806932e+03 1.594132e-23
3.815561e+03 1.598543e-23
3.824210e+03 1.586146e-23
3.832878e+03 1.608016e-23
3.841566e+03 1.611957e-23
3.850273e+03 1.619946e-23
3.859000e+03 1.633879e-23
3.867747e+03 1.637854e-23
3.876514e+03 1.637967e-23
3.885301e+03 1.638254e-23
3.894107e+03 1.646416e-23
3.902934e+03 1.655330e-23
3.911780e+03 1.658645e-23
3.920647e+03 1.661540e-23
3.929534e+03 1.675448e-23
3.938441e+03 1.656091e-23
3.947368e+03 1.666637e-23
3.956315e+03 1.654404e-23
3.965283e+03 1.674169e-23
3.974271e+03 1.697369e-23
3.983279e+03 1.716744e-23
3.992307e+03 1.714502e-23
4.001356e+03 1.717889e-23
4.010426e+03 1.719471e-23
4.019516e+03 1.716915e-23
4.028627e+03 1.730849e-23
4.037759e+03 1.720428e-23
4.046911e+03 1.706466e-23
4.056084e+03 1.716368e-23
4.065277e+03 1.764009e-23
4.074492e+03 1.744228e-23
4.083727e+03 1.787462e-23
4.092984e+03 1.779026e-23
4.102261e+03 1.788351e-23
4.111559e+03 1.802414e-23
4.120879e+03 1.773043e-23
4.130219e+03 1.835518e-23
4.139581e+03 1.808298e-23
4.148964e+03 1.780328e-23
4.158368e+03 1.798527e-23
4.167794e+03 1.817838e-23
4.177241e+03 1.820018e-23
4.186709e+03 1.814230e-23
4.196199e+03 1.806846e-23
4.205710e+03 1.813807e-23
4.215243e+03 1.833369e-23
4.224797e+03 1.866208e-23
4.234374e+03 1.855090e-23
4.243971e+03 1.875662e-23
4.253591e+03 1.900805e-23
4.263232e+03 1.926707e-23
4.272896e+03 1.901538e-23
4.282581e+03 1.932431e-23
4.292288e+03 1.935595e-23
4.302017e+03 1.908762e-23
4.311768e+03 1.961243e-23
4.321541e+03 1.885606e-23
4.331337e+03 1.951179e-23
4.341154e+03 1.953250e-23
4.350994e+03 1.974330e-23
4.360856e+03 1.986584e-23
4.370741e+03 1.976395e-23
4.380648e+03 1.973115e-23
4.390577e+03 1.977273e-23
4.400529e+03 1.954221e-23
4.410503e+03 1.974625e-23
4.420500e+03 2.040853e-23
4.430520e+03 2.063687e-23
4.440562e+03 1.774844e-23
4.450628e+03 1.774324e-23
4.460716e+03 1.777441e-23
4.470827e+03 1.783360e-23
4.480960e+03 1.789066e-23
4.491117e+03 1.788004e-23
4.501297e+03 1.783804e-23
4.511500e+03 1.782295e-23
4.521726e+03 1.788528e-23
4.531975e+03 1.800612e-23
4.542247e+03 1.814312e-23
4.552543e+03 1.817045e-23
4.562862e+03 1.917999e-23
4.573204e+03 2.243968e-23
4.583570e+03 2.213969e-23
4.593959e+03 2.169528e-23
4.604372e+03 2.162743e-23
4.614809e+03 2.213136e-23
4.625269e+03 2.219478e-23
4.635753e+03 2.243056e-23
4.646260e+03 2.296541e-23
4.656792e+03 2.357991e-23
4.667347e+03 2.319247e-23
4.677926e+03 2.209426e-23
4.688529e+03 2.256786e-23
4.699157e+03 2.273340e-23
4.709808e+03 2.225668e-23
4.720483e+03 2.324504e-23
4.731183e+03 2.422035e-23
4.741907e+03 2.384413e-23
4.752655e+03 2.341797e-23
4.763428e+03 2.345349e-23
4.774225e+03 2.425119e-23
4.785046e+03 2.310914e-23
4.795892e+03 2.301141e-23
4.806763e+03 2.472355e-23
4.817658e+03 2.393800e-23
4.828578e+03 2.449798e-23
4.839523e+03 2.412059e-23
4.850492e+03 2.406310e-23
4.861486e+03 2.386775e-23
4.872506e+03 2.463727e-23
4.883550e+03 2.427403e-23
4.894619e+03 2.492740e-23
4.905713e+03 2.551192e-23
4.916833e+03 2.495434e-23
4.927978e+03 2.502457e-23
4.939148e+03 2.538071e-23
4.950343e+03 2.479779e-23
4.961564e+03 2.521362e-23
4.972810e+03 2.551771e-23
4.984081e+03 2.536070e-23
4.995378e+03 2.559791e-23

